Hari,Mulai,Akhir,Jam Pelajaran,Kode Ruang,Kode Guru,Kelas,Kode Mata Pelajaran
senin,09:00:00,12:00:00,1,R001,G002,X-1,A004
selasa,12:00:00,14:00:00,2,R001,G003,X-1,A001
kamis,19:00:00,12:00:00,1,R001,G002,X-1,A004
