Hari,Mulai,Akhir,Jam Ke,Kode Ruang,Kode Guru,Kelas,Kode Mata Pelajaran
SENIN,07:00,07:45,1,X-1,G004,X-1,A003
SENIN,07:00,07:45,1,X-2,2354,X-2,A006
SENIN,07:45,08:30,2,X-2,2354,X-2,A006
SENIN,08:30,09:15,3,X-1,2354,X-1,A006
