NAMA;NIP;JK;GOLONGAN_DARAH;GAJI;KODE_GURU;STATUS_SERTIFIKASI;TEMPAT_LAHIR;TANGGAL_LAHIR;NIK;NIY NIGK;NUPTK;STATUS_KEPEGAWAIAN;JENIS_PTK;AGAMA;ALAMAT;RT;RW;DUSUN;DESA_KELURAHAN;KECAMATAN;KODE_POS;TELEPON;HP;EMAIL;JENIS_JABATAN;STATUS_AKTIF;SK_CPNS;TANGGAL_CPNS;SK_PENGANGKATAN;TMT_PENGANGKATAN;LEMBAGA_PENGANGKATAN;PANGKAT_GOLONGAN;SUMBER_GAJI;NAMA_IBU_KANDUNG;STATUS_PERKAWINAN;NAMA_SUAMI_ISTRI;NIP_SUAMI_ISTRI;PEKERJAAN_SUAMI_ISTRI;TMT_PNS;SUDAH_LISENSI_KEPALA_SEKOLAH;JUMLAH_SEKOLAH_BINAAN;PERNAH_DIKLAT_KEPENGAWASAN;MAMPU_HANDLE_KK;KEAHLIAN_BRAILLE;KEAHLIAN_BAHASA_ISYARAT;NPWP;KEWARGANEGARAAN;KUALIFIKASI_GURU;JENJANG_PENDIDIKAN
Aan Handoyo;196804062007011000;L;;;;;Cirebon;1968-04-06;3217020604680000;;4738746648200050;PNS Diperbantukan;Guru Mata Pelajaran;Islam;Kp. Babakan No.35;9;3;;Cigugur;Kec. Parongpong;40559;;;aanklung@gmail.com;;Aktif;813/Kep.681-Peg/2007;2007-01-01;840/2688-TU/2003;2003-06-01;Pemerintah Kab/Kota;II/c;APBD Kabupaten / Kota;Jamila;KAWIN;Yani;;Tidak bekerja;2009-01-01;TIDAK;0;TIDAK;0;TIDAK;TIDAK;;INDONESIA;;
Agung Purnama Komara;;L;;;;;Bandung;1982-09-29;3273182909820000;;;GTY/PTY;Tenaga Administrasi Sekolah;Islam;Babakan Cikutra No. 29;2;8;;Cikutra ;Kec. Cibeunying Kidul;40124;;;kamerad_mtv@yahoo.com;;Aktif;;;098/X/KEPEG/BPS-LABS/UPI/2009;2009-10-01;Ketua Yayasan;-;Lainnya;Eli Purnamasari;BELUM KAWIN;;;Lainnya;;TIDAK;0;TIDAK;0;TIDAK;TIDAK;;INDONESIA;;
Ahmad Zaldi;;L;;;;;Palembang;1984-04-11;1050061104845000;;1743762663200020;GTY/PTY;Guru Mata Pelajaran;Islam;Jl. Sekeloa Utara 1 No.6;7;5;;Sekeloa;Kec. Coblong;40132;;;ahm4d_84@yahoo.com;;Aktif;;;7521/H40/KP/2008;2008-01-01;Ketua Yayasan;-;Yayasan;Rodiah;KAWIN;Fatimah;;Wiraswasta;;TIDAK;0;TIDAK;0;TIDAK;TIDAK;;INDONESIA;;
Asep Candra;;L;;;;;Bandung;1987-11-03;3273010311870000;;;GTY/PTY;Tenaga Administrasi Sekolah;Islam;Jl. Gegerkalong Tengah No 6;8;4;;Gegerkalong;Kec. Sukasari;40153;;;;;Aktif;;;6173/H40/KP/2008;2008-10-01;Ketua Yayasan;;Yayasan;Masliah;KAWIN;Neni Suryani;;Pedagang Kecil;;TIDAK;0;TIDAK;0;TIDAK;TIDAK;772957106428000;INDONESIA;;
Dadan Ramdani;;L;;;;;Ciamis;1989-08-20;3207342008890000;;;GTY/PTY;Guru Mata Pelajaran;Islam;Dusun Bangsal;9;4;;Darmaraja;Kec. Lumbung;46256;;85624612140;dr_talo@yahoo.com;;Aktif;;;111/VII/Kepeg/SLP-BKSLKD/UPI/2012;2012-07-02;Ketua Yayasan;;Yayasan;Iah Masriah;BELUM KAWIN;;;Tidak bekerja;;TIDAK;0;TIDAK;0;TIDAK;TIDAK;;INDONESIA;;
Desi Widiarti;;L;;;;;Bandung;1988-02-13;3273015302880000;;;GTY/PTY;Guru BK;Islam;Jl. Gegerkalong No. 3;6;6;;Isola;Kec. Sukasari;40143;;;widiartidesi@ymail.com;;Aktif;;;8251/H40/KP/2010;2010-07-01;Ketua Yayasan;;Yayasan;Suminah;KAWIN;Irwan Inayatul Rochman;;Karyawan Swasta;;TIDAK;0;TIDAK;0;TIDAK;TIDAK;676387467428000;INDONESIA;;
Dessy Damayanti;;P;;;;;Bandung;1980-12-20;3273086012800000;;5552758660300130;GTY/PTY;Guru Mata Pelajaran;Islam;Jl. Dr. Setiabudi Km 10  No. 38 A;3;7;;Ledeng;Kec. Cidadap;40143;;;achie_cayo2012@yahoo.com;;Aktif;;;7521/H40/KP/2008;2008-07-01;Ketua Yayasan;;Yayasan;Etty Mulyati;KAWIN;Jatnika Kusumah;;Lainnya;;TIDAK;0;TIDAK;0;TIDAK;TIDAK;;INDONESIA;;
Dwi Haryanto;;L;;;;;Bandung;1984-10-31;3273232306110010;;9363762663200010;GTY/PTY;Guru Mata Pelajaran;Islam;Jl. Mars Barat I No.4;1;7;;Manjahlega;Kec. Rancasari;40286;;;hary_mathupi@yahoo.com;;Aktif;;;7521/H40/KP/2008;2008-10-01;Ketua Yayasan;;Yayasan;Siti Mahmudah;KAWIN;Dina Akbaryah Hudari;;Tidak bekerja;;TIDAK;0;TIDAK;0;TIDAK;TIDAK;872681903429000;INDONESIA;;
Eka Agustian;;L;;;;;Bandung;1987-08-19;3273301908870000;;;GTY/PTY;Guru Mata Pelajaran;Islam;Jl. AH Nasution;3;8;;Karang Pamulang;Kec. Mandalajati;40194;;;;;Aktif;;;105/VIII/Kepeg/SLP-BKSLKD/UPI/2014;2014-07-01;Ketua Yayasan;;Yayasan;Setia Komala;BELUM KAWIN;;;Tidak bekerja;;TIDAK;0;TIDAK;0;TIDAK;TIDAK;;INDONESIA;;
Firman Budyana;;L;;;;;Bandung;1979-02-05;3273080502790000;;;GTY/PTY;Tenaga Administrasi Sekolah;Islam;Jl. Sawahlega No. 48;3;6;;Ledeng;Kec. Sukasari;40143;;81322686444;budyanafirman@yahoo.co.id;;Aktif;;;8250/H40/KP/2010;2010-08-01;Ketua Yayasan;;Yayasan;Tuti Setiawati;BELUM KAWIN;;;;;TIDAK;0;TIDAK;0;TIDAK;TIDAK;676387483423000;INDONESIA;;
Iis Nurhayati;;P;;;;;Sumedang;1985-06-15;3211155506850010;;;GTY/PTY;Tenaga Administrasi Sekolah;Islam;Jl. Gegerkalong Girang Blk No.1;4;1;;Gegerkalong;Kec. Sukasari;40153;;;iisnurhayati02@gmail.com;;Aktif;;;038/III/Kepeg/SLP-BKSLKD/UPI/2014;2014-02-15;Ketua Yayasan;;Yayasan;Euis Suhaeti;KAWIN;Supriatman Muttaqien;;Karyawan Swasta;;TIDAK;0;TIDAK;0;TIDAK;TIDAK;;INDONESIA;;
Indri Murniawaty;;P;;;;;Bandung;1980-05-18;3217065805800020;;7850758659300030;GTY/PTY;Guru Mata Pelajaran;Islam;Kampung Andir;6;5;;Gudang Kahuripan;Kec. Lembang;;;;indrimurniawaty@ymail.com;;Aktif;;;7507/J33/KP.02.18/2003;2003-07-01;Ketua Yayasan;-;Yayasan;A Pondiah;KAWIN;Ahmad Ridwan;;Wiraswasta;;TIDAK;0;TIDAK;0;TIDAK;TIDAK;;INDONESIA;;
Intan Maulani;;P;;;;;Bandung;1989-10-03;3273084310890000;;;GTY/PTY;Guru Mata Pelajaran;Islam;Jl. Sersan Surip No.38/169A;2;3;;Ledeng;Kec. Cidadap;40143;;;intan.maulani38@gmail.com;;Aktif;;;105/VIII/Kepeg/SLP-BKSLKD/UPI/2014;2014-07-01;Ketua Yayasan;;Yayasan;Lia Antria;KAWIN;Giwang Himawan;;Karyawan Swasta;;TIDAK;0;TIDAK;0;TIDAK;TIDAK;;INDONESIA;;
Komala Martini;;P;;;;;Bandung;1977-11-21;3273016111770000;;453755658300013;GTY/PTY;Guru Mata Pelajaran;Islam;Jl. Geger Arum Baru No. 21;3;6;;Isola;Kec. Sukasari;40154;;81395419769;cheu.lala@yahoo.com;Wakil Kepala Sekolah;Aktif;;;14b/YK KORPRI/Kep/C/2001;2001-07-01;Ketua Yayasan;-;Yayasan;Karsiti;KAWIN;Budi Susanto;;Karyawan Swasta;;TIDAK;0;TIDAK;0;TIDAK;TIDAK;872681945428000;INDONESIA;;
Kurniawan;;L;;;;;Bandung;1981-03-17;3204291703810000;;3649759660200010;GTY/PTY;Guru Mata Pelajaran;Islam;Kp. Lio Ciparay;2;9;;Ciparay;Kec. Ciparay;40381;;;kurniawansmplab@yahoo.com;;Aktif;;;7521/H40/KP/2008;2008-07-01;Ketua Yayasan;;Yayasan;Dedeh Sutriani;KAWIN;Anisa Kamilah;;Karyawan Swasta;;TIDAK;0;TIDAK;0;TIDAK;TIDAK;872681895423000;INDONESIA;;
Lina Herlina;196701071989032000;P;;;;;Bandung;1967-01-07;1016324701670010;;4439745647300040;PNS Diperbantukan;Guru Mata Pelajaran;Islam;Bumi Sukagalih Permai Blok C191;3;9;;Sangkanhurip;Kec. Katapang;40971;;;linaherlina_tari@yahoo.com;;Aktif;5224/102.Kep/C.PB.1.1989;1989-03-01;1112/1/I 02.Kep/C.1b.1990;1989-03-01;Pemerintah Propinsi;IV/a;APBD Kabupaten / Kota;Emelia Tedja Ningsih;KAWIN;Yuliawan Kasmahidayat;196507241993021000;PNS/TNI/Polri;1990-11-01;TIDAK;0;TIDAK;0;TIDAK;TIDAK;772957163445000;INDONESIA;;
Lina Supiatin;;P;;;;;Banjar;1974-09-07;3217064709740010;;1239752654220000;GTY/PTY;Guru Mata Pelajaran;Islam;Graha Bukit Raya 2/13 No.7;2;24;;Cilame;Kec. Ngamprah;40552;;;linasupiatin@yahoo.co.id;;Aktif;;;0104/XII/BPS-Lab/UPI/2008;2008-07-01;Ketua Yayasan;;Yayasan;Cucu Aisah;KAWIN;Prayoga;;PNS/TNI/Polri;;TIDAK;0;TIDAK;0;TIDAK;TIDAK;772957197421000;INDONESIA;;
Lirih Rahmiati;;P;;;;;Sukabumi;1971-05-17;3273085705710000;;849749650300022;GTY/PTY;Guru Mata Pelajaran;Islam;Jl. Boscha III No. 145;2;7;;Pasteur;Kec. Sukajadi;40161;222035400;81322023354;lirieh@yahoo.com;;Aktif;;;5861/H40/KP/2007;2007-07-01;Ketua Yayasan;;Yayasan;RA Ratminingsih;KAWIN;Farit Gauss Amir;;Karyawan Swasta;;TIDAK;0;TIDAK;0;TIDAK;TIDAK;;INDONESIA;;
Mala Komalasari;;P;;;;;Cianjur;1990-03-01;3203044103900010;;;GTY/PTY;Guru Mata Pelajaran;Islam;Kp. Garung;2;6;;Munjul;Kec. Cilaku;43285;;;malakomalasari01@yahoo.co.id;;Aktif;;;105/VIII/Kepeg/SLP-BKSLKD/UPI/2014;2014-07-01;Ketua Yayasan;;Yayasan;Rukoyah;BELUM KAWIN;;;Tidak bekerja;;TIDAK;0;TIDAK;0;TIDAK;TIDAK;;INDONESIA;;
Maya Evayanti;;P;;;;;Bandung;1991-05-30;3273077005910000;;;GTY/PTY;Guru Mata Pelajaran;Islam;Jl. Karang Tinggal Dalam No.10;1;11;;Cipedes;Kec. Sukajadi;40162;;;mayaevayanti@yahoo.com;;Aktif;;;105/VIII/Kepeg/SLP-BKSLKD/UPI/2014;2014-07-01;Ketua Yayasan;;Yayasan;Sugianti;BELUM KAWIN;;;Tidak bekerja;;TIDAK;0;TIDAK;0;TIDAK;TIDAK;;INDONESIA;;
Mohamad Agus Kusmayadi;;L;;;;;Sumedang;1988-06-12;3213141206880000;;5944766667200000;GTY/PTY;Guru BK;Islam;Kp. Kalapa;9;2;;Sindanglaya;Kec. Tanjungsiang;41284;;;maksppb06@yahoo.co.id;;Aktif;;;8544/H40/KP/2009;2009-07-01;Ketua Yayasan;;Yayasan;Yunengsih;KAWIN;Yunelis;;Tidak bekerja;;TIDAK;0;TIDAK;0;TIDAK;TIDAK;457098630439000;INDONESIA;;
Mohammad Ikhsanul Hakim;;L;;;;;Garut;1988-01-11;3205141101880010;;1443766666200000;GTY/PTY;Guru Mata Pelajaran;Islam;Kp. Nyalindung;5;2;;Cisitu;Kec. Malangbong;44188;;;hakim.ikhsan88@gmail.com;;Aktif;;;8544/UN40/KP/2009;2009-07-01;Ketua Yayasan;;Yayasan;Entin Wartini;KAWIN;Aty Widhyastuty;;Karyawan Swasta;;TIDAK;0;TIDAK;0;TIDAK;TIDAK;676387038421000;INDONESIA;;
Mokhamad Irwan;;L;;;;;Bandung;1992-02-02;3204060202920000;;;GTY/PTY;Guru Mata Pelajaran;Islam;Gg. Alamanda V No.43;2;13;;Cibeunying;Kec. Cimenyan;40191;;;mokhamad.irwan@gmail.com;;Aktif;;;105/VIII/Kepeg/SLP-BKSLKD/UPI/2014;2014-07-01;Ketua Yayasan;;Yayasan;Euis Tintin;BELUM KAWIN;;;Tidak bekerja;;TIDAK;0;TIDAK;0;TIDAK;TIDAK;;INDONESIA;;
Mulyana Abdullah;;L;;;;;Garut;1965-07-09;3217020907650000;;8041743644200010;GTY/PTY;Guru Mata Pelajaran;Islam;Jl Viola No 15 Pondok Hijau Indah;4;10;;Ciwaruga;Kec. Parongpong;40559;;;abdullahmulyana@gmail.com;Kepala Sekolah;Aktif;;;28B/YK KORPRI IKIP/Kep/C/1996;1996-08-01;Ketua Yayasan;-;Yayasan;Siti Rohmat;KAWIN;Rr Marhamah;;PNS/TNI/Polri;;TIDAK;0;TIDAK;0;TIDAK;TIDAK;772957031428000;INDONESIA;;
Nanang Karyana;;L;;;;;Bandung;1976-09-12;3273011209760000;;;GTY/PTY;Tenaga Administrasi Sekolah;Islam;Jl. Gegerkalong Girang;5;6;;Isola;Kec. Sukasari;40154;;85861887789;;;Aktif;;;111/VII/Kepeg/SLP-BKSLKD/UPI/2012;2012-07-02;Ketua Yayasan;;Yayasan;Itjin;KAWIN;Tanti Nopianti;;Tidak bekerja;;TIDAK;0;TIDAK;0;TIDAK;TIDAK;195381611428000;INDONESIA;;
Oo Ohir;;L;;;;;Bandung;1986-10-18;3273011810860000;;;GTY/PTY;Tenaga Administrasi Sekolah;Islam;Jl Gegerkalong Girang No.26;5;1;;Gegerkalong;Kec. Sukasari;40153;;;oo_ohir@yahoo.com;;Aktif;;;8250/H40/KP/2010;2010-08-01;Ketua Yayasan;;Yayasan;Neneng;BELUM KAWIN;;;Lainnya;;TIDAK;0;TIDAK;0;TIDAK;TIDAK;676387517428000;INDONESIA;;
Rika Seftiana;;P;;;;;Bandung;1984-09-02;3204064209840010;;3234762663300050;GTY/PTY;Guru Mata Pelajaran;Islam;Jl. Cimuncang Atas Pasir Honje No. 124;5;2;;Padasuka;Kec. Cimenyan;40192;;;seftiana_rika@yahoo.com;;Aktif;;;107/IX/BPS-LABS/UPI/2007;2007-08-01;Ketua Yayasan;;Yayasan;Rosita Nuryani;KAWIN;uum gumilar;;Wiraswasta;;TIDAK;0;TIDAK;0;TIDAK;TIDAK;772957049444000;INDONESIA;;
Rika Siti Jahara;;P;;;;;Garut;1991-05-27;3205106705910000;;;GTY/PTY;Guru Mata Pelajaran;Islam;Kp. Kiaragoong;1;9;;Mandalasari;Kec. Kadungora;44153;;8579353557;zahra_reecha@gmail.com;;Aktif;;;038/III/Kepeg/SLP-BKSLKD/UPI/2014;2014-02-15;Ketua Yayasan;;Yayasan;Daryati;BELUM KAWIN;;;Tidak bekerja;;TIDAK;0;TIDAK;0;TIDAK;TIDAK;;INDONESIA;;
Rina Juliantini;;P;;;;;Bandung;1985-07-05;3273084507850000;;;GTY/PTY;Tenaga Administrasi Sekolah;Islam;Jl. Sersan Surip No. 110/169A;1;4;;Ledeng;Kec. Cidadap;40143;;;;;Aktif;;;8545/H40/KP/2009;2009-11-01;Ketua Yayasan;;Yayasan;Nunung Ratnaningsih;BELUM KAWIN;;;Lainnya;;TIDAK;0;TIDAK;0;TIDAK;TIDAK;676387533423000;INDONESIA;;
Risbon Sianturi;196606062000121000;L;;;;;Pematang Siantar;1966-06-06;3217020606660020;;1938744647200100;PNS;Guru Mata Pelajaran;Islam;Jl. Ciwaruga No 2;3;6;;Ciwaruga;Kec. Parongpong;40558;2291755399;;;;Aktif;2986/102.3/KP/20002986/2000;2000-12-12;210/I.021/SK/SMPLAB/UPI/VII/2014;2014-07-11;Kepala Sekolah;III/a;APBN;R Simanjutak;KAWIN;Enti Sunarti;;PNS/TNI/Polri;1998-04-01;TIDAK;0;TIDAK;0;TIDAK;TIDAK;;INDONESIA;;
Roberto Leonardo;;L;;;;;Bandung;1973-04-22;3204102204730010;;754751653200012;GTY/PTY;Guru Mata Pelajaran;Islam;Jl. Prabuan Bulan No.32 Cicukang ;6;1;;Mekar Rahayu;Kec. Margaasih;40218;;;roberto.leonardo99@yahoo.com;Wakil Kepala Sekolah;Aktif;;;11c/YK KORPRI IKIP/Kep/C/1998;1998-07-01;Ketua Yayasan;;Yayasan;Ukin Rukiah;KAWIN;Dewi Sisiyanti Fajarsari;;Lainnya;;TIDAK;0;TIDAK;0;TIDAK;TIDAK;775781768445000;INDONESIA;;
Titi Jualawati;196503241988112000;P;;;;;Bandung;1965-03-24;3273086403650000;;3656743645300000;PNS Diperbantukan;Guru Mata Pelajaran;Islam;Jl. Sersan Surip 119/169A;1;4;;Ledeng;Kec. Cidadap;40143;;;tiejualawati@yahoo.com;;Aktif;107118/A2.IV.1/C/1988;1988-11-01;3404/1/I02.Kep/C.1989;1988-11-01;Pemerintah Propinsi;IV/b;APBN;Ikah;KAWIN;Dadang Umara;196402151984101000;PNS/TNI/Polri;1989-11-01;TIDAK;0;TIDAK;0;TIDAK;TIDAK;93547271423000;INDONESIA;;
Widaningsih;;P;;;;;Jakarta;1972-08-19;3273015908720000;;9151750652300050;GTY/PTY;Guru Mata Pelajaran;Islam;Jl. GegerKalong Tengah No.73;4;3;;Gegerkalong;Kec. Sukasari;40153;;;widawiwid@rocketmail.com;;Aktif;;;5861/H40/KP/2007;2007-07-01;Ketua Yayasan;;Yayasan;Mamah Maryani;KAWIN;Yon Syahron Fajar;;Karyawan Swasta;;TIDAK;0;TIDAK;0;TIDAK;TIDAK;;INDONESIA;;
Wiwin Sriwulan;;P;;;;;Subang;1979-06-19;3217015906790010;;3951757660300000;GTY/PTY;Guru Mata Pelajaran;Islam;Kp. Andir;3;6;;Gudang Kahuripan;Kec. Lembang;40391;;;wiwin_sriwulan@yahoo.com;;Aktif;;;09a/YK KORPRI UPI/Kep/C/2002;2002-07-01;Ketua Yayasan;;Yayasan;Hasanah;KAWIN;Rohadi;;PNS/TNI/Polri;;TIDAK;0;TIDAK;0;TIDAK;TIDAK;;INDONESIA;;
Wiwin Winarsih;;P;;;;;Bandung;1969-09-17;3273085709690010;;9249747649300070;GTY/PTY;Guru Mata Pelajaran;Islam;Jl. Sersan Surip No. 43/169A;3;3;;Ledeng;Kec. Cidadap;40143;;;winarsih_upi@yahoo.com;;Aktif;;;288/YK KORPRI IKIP/KEP/C/1996;1996-08-01;Ketua Yayasan;;Yayasan;Cicih;KAWIN;Kurnia;196904281990021000;PNS/TNI/Polri;;TIDAK;0;TIDAK;0;TIDAK;TIDAK;887237733423000;INDONESIA;;
Yoga Adi Pratama;;L;;;;;Karawang;1991-11-19;3215251911910000;;;GTY/PTY;Guru Mata Pelajaran;Islam;Prm Cikampek Indah;30;11;;Sarimulya;Kec. Karawang;41373;;;;;Aktif;;;105/VIII/Kepeg/SLP-BKSLKD/UPI/2014;2014-07-01;Ketua Yayasan;;Yayasan;Ida Rosidah;BELUM KAWIN;;;Tidak bekerja;;TIDAK;0;TIDAK;0;TIDAK;TIDAK;;INDONESIA;;
Yudi Eka Suryapriadi;;L;;;;;Cirebon;1968-01-02;3273010201680000;;;GTY/PTY;Tenaga Administrasi Sekolah;Islam;Jl. Jayaperkasa No.19;4;5;;Isola;Kec. Sukasari;40154;;;;;Aktif;;;8545/H40/KP/2009;2009-11-01;Ketua Yayasan;;Yayasan;Taty Rosmiaty;KAWIN;Bentang Indriani;197402012009102000;PNS/TNI/Polri;;TIDAK;0;TIDAK;0;TIDAK;TIDAK;94394244428000;INDONESIA;;
Yusnita Pusparagen;;P;;;;;Bandung;1983-08-20;1050086008835000;;;GTY/PTY;Guru Mata Pelajaran;Islam;Gg. Leghorn No 51/143E;1;9;;Cicadas;Kec. Cibeunying Kidul;40121;;;yusnita.pusparagen@gmail.com;;Aktif;;;7521/UN40/KP/2008;2008-07-01;Ketua Yayasan;;Yayasan;Teti Rohaeti;KAWIN;Asep Saefudin;;PNS/TNI/Polri;;TIDAK;0;TIDAK;0;TIDAK;TIDAK;;INDONESIA;;
