PENDIDIK DAN TENAGA KEPENDIDIKAN;;;;;;;;
Daftar Tenaga Pendidik ;;;;;;;;
;;;;;;;;
;;;;;;;;
;;;;;;;;
No.;NIK;NIP;Nama;Pangkat;Nomor HP;Email;;
1;3278040106630005;196306011988031011;AAM MUHARAM;IV/a;081323547728;aam_muharam@sman2-tsm.sch.id;;
2;3278042011550003;195511201987031001;ADANG ISKANDAR;IV/b;081323187444;;;
3;3278041211760008;;ADE JENAL ARIFIN, S.Kom;III/a;081320797412;denalfin@gmail.com;;
4;3278042508650007;196508251986101001;AGUS ROSDIMAN;III/c;085353241764;;;
5;3206192308830002;;AGUS TOMI;;085222743973;;;
6;3206365406600001;196006141988032002;AI SURTIANI;IV/a;081312612310;;;
7;3206082205830001;;ALI NURDIN;;085215806805;;;
8;320602480991006 ;;ANISA SOFARINI, S.Pd;;;sofarini.anisa@gmail.com;;
9;3207016910600001;196010291986032003;ANNA GERDIANA;IV/b;081323231745;;;
10;3278022009850001;;ARBI HIDAYAT;;082118144822;arbysmanda84@gmail.com;;
11;3206241606720001;197206161998021001;ASEP SUKMANA, S.Pd, M.M.;IV/a;;;;
12;3278042405700006;;ATENG;;;;;
13;-               ;;AUNUR ROFIQ;III/a;;;;
14;3273024804710008;197104082005012006;BUDI HARTATI, S.Pd;III/c;;bhartati25@yahoo.co.id;;
15;3278066704650003;196504271986032012;BUDI SULISTIAWATI, S.Pd;IV/a;081221449655;chieby8465@gmail.com;;
16;3278046611890002;;CINDI KISTIAWINDI;;085223795249;;;
17;-               ;;DARA AGNIS SEPTIYUNI.,S.Pd;;;agnes.dara@gmail.com;;
18;-               ;196102211985011001;DARSONO;IV/a;085223496770;;;
19;3278031008590003;195908101989021002;DEDI SURYADI;IV/b;081371708632;dedi_ua@yahoo.com;;
20;-               ;196110201986031011;DENI RUSENA TR;IV/a;081323269369;deni_rusena@yahoo.co.id;;
21;3278025806890008;;DEWI WULANDARI;;085221069666;;;
22;3278041005800010;;DIAN KOMARA;;081323735011;;;
23;3217026006640001;196406201992032000;DIAN WIDIAWATI;IV/b;081323330622;widiawatidian916@gmail.com;;
24;-               ;196609141993031004;DIDA RULIANDA ADIWIJAYA;IV/a;08122300491;;;
25;-               ;596606231992032006;DINY KUSWANDINI;III/a;081312942274;;;
26;-               ;196709271998022003;Dra. DIAN ROSDIANAH;IV/a;;;;
27;3278064511630010;196311051992032003;Dra. Hj. AAN KANIA, M.M.;IV/a;081511222011;;;
28;-               ;196504031994032007;Dra. LELY SUTARLIAH;IV/a;;;;
29;-               ;;Dra. NUNUNG NURHAYATI;III/a;;;;
30;-               ;196611171990022001;Dra. SRI DARLINA;III/a;;;;
31;-               ;196605241991122001;Dra. YEYE HERYANI, M.M.;III/a;;;;
32;3278091504630004;196304151988031010;Drs. AAM ABDULLAH M, S.Pd, MM;IV/b;;aam_smanda@yahoo.com;;
33;3278080701610001;19610107 198303 1;Drs. ADE DARYUDIN, M.Pd;;;;;
34;-               ;196707091994121001;Drs. AZIS KUSWANDI, M.Pd.;IV/a;;;;
35;3278051012620003;196212101989031011;Drs. DEDI SUPRIADI IDRIS, M.Pd;;085723567420;;;
36;-               ;196606121994121002;Drs. TEDI SUJADAT;IV/a;;;;
37;-               ;197001251995122003;DUROTUL FARIDAH, S.Pd;III/a;;;;
38;-               ;196211201985121002;EDWIN DAUD SUWANDI;III/a;08122099675;;;
39;3278036210750002;;ENDAH WAHYUNINGSIH;;;;;
40;-               ;198410202009021004;ENDANG JAENUDIN, S.Pd;III/a;;;;
41;-               ;196309211993032002;ENUNG NURDIAH, S.Ag.;III/a;;;;
42;-               ;196803271991032003;ETI ROHAYATI, S.Pd;III/a;;;;
43;3245566777      ;198110172006041005;FARHAN NASRULLAH;III/c;;;;
44;-               ;196109221989021002;H. CUCU KUSMANA;III/a;081363521537;;;
45;3278030212580005;195812021982031005;H. ENDY ABDUSSALAM;II/c;08122112846;;;
46; 327804240157000;195701241985031007;H. MASTUR;IV/b;08122093317;;;
47;-               ;695805121986011002;H. SARDIANTO;III/a;085353763848;;;
48;-               ;196503031994122003;HENI HERLIANI;III/a;;;;
49;-               ;196505191988032004;Hj. IIS SUMINARTI, S.Pd;III/a;;;;
50;-               ;196406071991032003;Hj. LELA NURKILAH;III/a;081323120583;;;
51;3278096212640002;196412221989032006;Hj. LIA HALMAHERA;IV/a;08121480562;;;
52;3278085005560005;195605101978032005;Hj. LILIS MUKHLISHOH;III/a;0811216871;;;
53;3278075607600006;196007161984032007;Hj. LINLIN HIDANINGSIH;IV/a;085223560765;hidaningsih.linlin@yahoo.com;;
54;-               ;195906101984032005;Hj. NUNENG LISTIAWATI;III/a;085223689390;;;
55;-               ;196507311988102002;Hj. PIPIH SOPIAH, S.Pd.M.M.;III/a;;;;
56;-               ;195704301980022001;Hj. SRI MULYATI;II/b;0265 339437;;;
57;-               ;196104131987032007;Hj. WIWI WIDIAWATI;III/a;081320555195;;;
58;1234            ;;IBIN YUSUF;;;;;
59;-               ;197009141994122003;IIS SUMINAR RAHMI, S.Pd, M.Pd;III/a;;;;
60;-               ;196411211987032020;IKA NURSISKA;III/a;081563836377;;;
61;-               ;198108222009021002;IRLAN WARDIANSAH, S.Pd;III/a;;;;
62;3278020212700004;;IWAN SETIAWAN;;081323303074;;;
63;-               ;196209211988031006;JEN AHMAD NASUTION;III/a;081220890281;;;
64;-               ;198308102009022009;KAMILA SARI, S.Pd;III/a;;;;
65;-               ;196707221991032007;LIA YULIAWATI;III/a;0812242143;;;
66;3278075212580005;195812121981032014;MAMAH HERLIANA;II/c;02652351058;;;
67;-               ;595908251984032004;MOLIDA OSNI;III/a;085223483341;;;
68;3207025601650002;196501161986032005;N. AAH SARIAH;III/b;;;;
69;-               ;196106051988031007;NANANG SETIAWAN;III/a;081394557428;;;
70;3278082711590007;195911271986121001;NANANG SOMADISASTRA, S.Pd, M.Pd;;081222861959;;;
71;-               ;196406241989032005;NINIK SUPRAPTI;III/a;081320731959;;;
72;3206170410860002;198610042011011002;PATHUL ADIM FARIZ;III/a;;;;
73;3278041206850007;;RIKI IRMANSYAH;;085223153001;;;
74;-               ;197005202010011006;RUHYA,S.Ag;III/a;;;;
75;3278040705690008;196905071992031007;RUSWANA;II/b;;;;
76;-               ;;RYAN TAUFIK PRAWIRATAMA;;;;;
77;-               ;;SARIPUDIN, S.Pd.I, M.M.;III/a;;;;
78;-               ;196209081987032007;SARWATI;III/a;082118300022;;;
79;3278090101740003;;Solihin;;;;;
80;-               ;196407201989031010;SOLIHIN;III/a;081223655500;;;
81;3278024701580004;195801071981012002;SRI UTAMI;IV/c;08122088721;;;
82;3278032101610007;196101211982121001;TEDDY;IV/a;08122050553;;;
83;3278082903600001;196003291983031007;TEDI RIYADI;IV/b;081323541664;riyaditedi@ymail.com;;
84;-               ;;TENDI KUSTENDI;;;;;
85;-               ;197911242006041004;UJANG WAWA, S.Pd;III/a;;;;
86;-               ;196809151991011001;UMAR BUDI SURATMAN, S.Pd;III/a;;;;
87;3207311001690001;196901101990031000;UUNG;III/a;;;;
88;-               ;198111172009021002;VIDDY NOER SHALEH, S.Pd;III/a;;;;
89;-               ;196606071995122003;YATI, S.Pd.;III/a;;;;
90;-               ;196609031988031011;YAYAN, S.Pd.;III/a;;;;
91;3278021008580006;195808101983021007;YOYO WAHYO;IV/b;081323300058;;;
