NAMA;NIP;JK;GOLONGAN_DARAH;GAJI;KODE_GURU;STATUS_SERTIFIKASI;TEMPAT_LAHIR;TANGGAL_LAHIR;NIK;NIY_NIGK;NUPTK;STATUS_KEPEGAWAIAN;JENIS_PTK;AGAMA;ALAMAT;RT;RW;DUSUN;DESA_KELURAHAN;KECAMATAN;KODE_POS;TELEPON;HP;EMAIL;JENIS_JABATAN;STATUS_AKTIF;SK_CPNS;TANGGAL_CPNS;SK_PENGANGKATAN;TMT_PENGANGKATAN;LEMBAGA_PENGANGKATAN;PANGKAT_GOLONGAN;SUMBER_GAJI;NAMA_IBU_KANDUNG;STATUS_PERKAWINAN;NAMA_SUAMI_ISTRI;NIP_SUAMI_ISTRI;PEKERJAAN_SUAMI_ISTRI;TMT_PNS;SUDAH_LISENSI_KEPALA_SEKOLAH;JUMLAH_SEKOLAH_BINAAN;PERNAH_DIKLAT_KEPENGAWASAN;MAMPU_HANDLE_KK;KEAHLIAN_BRAILLE;KEAHLIAN_BAHASA_ISYARAT;NPWP;KEWARGANEGARAAN;KUALIFIKASI_GURU;JENJANG_PENDIDIKAN
;;L/P;A/B/AB/O;;;;;;;;;;;;;;;;;;;;;;;Aktif/Tidak Aktif;;;;;;;;;KAWIN/TIDAK KAWIN;;;;;YA/TIDAK;;YA/TIDAK;;;;;;bidang mata pelajaran;D3/S1/S2 dsb
Ade Abdul Rozaq;;L;;;;;Batujajar;1974-01-05;3217090501740011;;;Tenaga Honor Sekolah;Tenaga Administrasi Sekolah;1;Blok Gunung Sanggar;4;1;Blok Gunung Sanggar;Batujajar Barat;Kec. Batujajar;40561;;081809118481;;Wakil Kepala Sekolah Sarpras;1;;;896/287-Kepeg/2014;2014-07-01;Kepala Sekolah;;Sekolah;Siti Jubaedah;BELUM KAWIN;;;Tidak bekerja;;TIDAK;0;TIDAK;0;TIDAK;TIDAK;;INDONESIA;;
Aeni Roaidah;197607092005012011;P;;;;;Bandung;1976-07-09;3217104907760008;;5041754656300033;PNS;Guru Mapel;1;Kp. Cicalengka RT.04 RW.03 Desa Mekarmukti Kec. Cihampelas;4;3;cicalengka;mekar mukti;Kec. Cihampelas;40562;-;081320593329;;;1;813.3/KEP.41A-BKD/2005;2005-01-01;813.3/KEP.41A-BKD/2005;2005-01-01;Pemerintah Kab/Kota;III/a;APBD Provinsi;Mimin;KAWIN;mamat slamet;;Pedagang Kecil;2006-06-01;TIDAK;0;TIDAK;0;TIDAK;TIDAK;775837131421000;INDONESIA;;
Agus Mulyadi;197008092010011003;L;;;;;Bandung;1970-08-09;1016440908700009;-;1141748648200003;PNS;Guru Mapel;1;Kp. Sagalaherang ;3;9;Rancakasumba;Rancakasumba;Kec. Solokanjeruk;40382;-;085220927770;agus_mulyadi@34.yahoo.com;;1;81.3.3/Kep.200-BKPP/2010;2010-01-01;81.3.3/Kep.200-BKPP/2010;2010-01-01;Pemerintah Kab/Kota;III/b;APBD Kabupaten/Kota;Hj.Edeng Darkiah;BELUM KAWIN;;;Tidak bekerja;2011-04-01;TIDAK;0;TIDAK;0;TIDAK;TIDAK;345343156444000;INDONESIA;;
Amanatul Rokhmah;197506072009012006;P;;;;;Batang;1975-06-07;3217094706750012;;9038753654300023;PNS;Guru Mapel;1;jl al falah;7;16;blok sinar jaya;batujajar barat;Kec. Batujajar;40561;-;08156037130;rokhmahamanatul@yahoo.com;;1;813.3/Kep.210-BKPP/2009;2009-01-01;813.3/Kep.210-BKPP/2009;2009-01-01;Pemerintah Kab/Kota;III/a;APBN;Suryati;KAWIN;Harsoyo;-                 ;Karyawan Swasta;2010-04-01;TIDAK;0;TIDAK;0;TIDAK;TIDAK;;INDONESIA;;
Ari Karliaman Sahid;;L;;;;;Bandung;1987-01-09;3217100901870007;;4233765665200003;Guru Honor Sekolah;Guru Mapel;1;Kp. Mande;2;5;Kp. Mande;Mekarmukti;Kec. Cihampelas;40562;;085624973686;;;1;;;896/287-Kepeg/2014;2014-07-01;Kepala Sekolah;;Sekolah;Aah Sumarni;KAWIN;Eliyanti Eka Wulandari;;Lainnya;;TIDAK;0;TIDAK;0;TIDAK;TIDAK;;INDONESIA;;
Asep Hadiansyah;;L;;;;;Batujajar;1979-02-25;3217092502790001;;1557757658200042;Tenaga Honor Sekolah;Tenaga Administrasi Sekolah;1;Kp. Sinarmukti ;1;4;Sinarmukti;Selacau;Kec. Batujajar;40561;-;0229200705;;;1;;;896/1370 A- Kepeg/2008;2008-01-07;Pemerintah Pusat;-;Lainnya;Nia kuraesin;BELUM KAWIN;;;Tidak bekerja;;TIDAK;0;TIDAK;0;TIDAK;TIDAK;;INDONESIA;;
Asep Kurniawan;197901112006041006;L;;;;;Bandung;1979-01-11;3217111101790005;;5433757659200013;PNS;Guru Mapel;1;Kp. Sumur Bandung RT.01 RW.09 Desa Cililin;1;9;Sumur Bandung;Cililin;Kec. Cililin;40562;-;081322537653;k.askur80@gmail.com;;1;813/Kep.282-BKD/2006;2006-04-01;813/Kep.282-BKD/2006;2006-04-01;Pemerintah Pusat;III/c;APBN;N. Sutiara;KAWIN;Imas Hanipah;;Tidak bekerja;2008-01-01;TIDAK;0;TIDAK;0;TIDAK;TIDAK;258758382421000;INDONESIA;;
Asep Saepudin;-;L;;;;;Batujajar;1976-03-06;3217100603760020;-;2638754657200012;Tenaga Honor Sekolah;Tenaga Administrasi Sekolah;1;Kp. Cihamirung No. 10;1;4;Dua;Mekarjaya;Kec. Cihampelas;40561;-;082120857080;;;1;;;896/1803-Kepeg/2009;2009-07-01;Pemerintah Pusat;-;Sekolah;Ikah;KAWIN;Nurhayati;-                 ;Tidak bekerja;;TIDAK;0;TIDAK;0;TIDAK;TIDAK;;INDONESIA;;
Asep Saepul Hidayat;198202022010011011;L;;;;;Bandung;1982-02-02;3217110202820030;;6534760660200002;PNS;Guru Mapel;1;Kp. Saar Mutiara No. 1 ;3;6;Saar Mutiara;Karang Tanjung;Kec. Batujajar;40562;-;087821191312;syefulpai@yahoo.com;;1;813.3/kep.119-BKPP/2010;2010-01-01;813.3/Kep.119-BKPP/2010;2010-01-01;Pemerintah Pusat;III/b;APBN;Ai Rohanah;KAWIN;Ai Rosifa;-                 ;Tidak bekerja;2011-04-01;TIDAK;0;TIDAK;0;TIDAK;TIDAK;361963796421000;INDONESIA;;
Asti Ratna Campaka;;P;;;;;Cililin;1986-07-28;3217096807860005;;8060764665300013;Tenaga Honor Sekolah;Tenaga Administrasi Sekolah;1;Jl. Aster 3 No. B11 Perum Batujajar indah 1;3;13;;Batujajar Timur;Kec. Batujajar;40561;-;085720196255;rcasti@yahoo.co.id;;1;;;896.1/607 A - Kepeg / 2006;2006-07-01;Kepala Sekolah;-;Sekolah;Elpiyani;KAWIN;Rijaludin;-                 ;Lainnya;;TIDAK;0;TIDAK;0;TIDAK;TIDAK;;INDONESIA;;
Ayep Fakhroni;;L;;;;;Sukabumi;1977-02-10;3217091002770013;;8542755658200012;Guru Honor Sekolah;Guru Mapel;1;Kp. Sinarmukti RT.03 RW.01 Desa Selacau Kec. Batujajar;3;1;selacau;selacau;Kec. Batujajar;40561;-;085777731750;;;1;;;896/1803-Kepeg/2009;2009-07-01;Pemerintah Pusat;-;Sekolah;Maemunah;KAWIN;Dewi Pancawati;;Tidak bekerja;;TIDAK;0;TIDAK;0;TIDAK;TIDAK;;INDONESIA;;
Cucun Candra Gumilar;196808201995121002;L;;;;;Cimahi;1968-08-20;3277022008680018;;0152746649200033;PNS;Guru Mapel;1;Jl. Babakang Gg. Sudarma No. 22;2;9;;Cihami;Kec. Cimahi Tengah;40523;0226649572;081220000945;dwirajaratusakti@gmail.com;;1;75413/A2/KP/1995;1995-12-01;75413/A2/KP/1995;1995-12-01;Pemerintah Pusat;IV/a;APBN;Siti Rohmah;KAWIN;Sri Mulyaningsih;197601041999032003;Tidak bekerja;1997-05-01;TIDAK;0;TIDAK;0;TIDAK;TIDAK;269258836421000;INDONESIA;;
Darman;;L;;;;;Sukoharjo;1968-03-23;3204102303680003;;7655746650200002;Guru Honor Sekolah;Guru Mapel;1;Jl. Terusan Nanjung No.1 RT.01 RW.04 Desa Nanjung Margaasih;1;4;;Nanjung;Kec. Margaasih;40217;-;081809173587;;;1;;;108/I02.10/SMU-Btr/Kp/2002;2002-07-01;Pemerintah Pusat;-;Lainnya;Sulinem;KAWIN;;;Tidak bekerja;;TIDAK;0;TIDAK;0;TIDAK;TIDAK;;INDONESIA;;
Dede Diky;;L;;;;;Bandung;1988-11-18;3217061811880009;;;Guru Honor Sekolah;Guru Mapel;1;Selacau;0;0;;Selacau;Kec. Batujajar;;;;;;1;;;896/209-Kepeg/2012;2012-07-01;Kepala Sekolah;;Sekolah;Hj. Kurnia;BELUM KAWIN;;;Tidak bekerja;;TIDAK;0;TIDAK;0;TIDAK;TIDAK;;INDONESIA;;
Dede Sopandi;;L;;;;;Sumedang;1989-04-22;3217092204890009;;5754767668200002;Tenaga Honor Sekolah;Tenaga Administrasi Sekolah;1;Kp. Cibodas;1;7;;Pangauban;Kec. Batujajar;40561;02287780364;082116597997;azzamsopandi@gmail.com;;1;;;896/972-Kepeg/2007;2007-07-01;Kepala Sekolah;-;Sekolah;Tarcih;KAWIN;Ernasari;-                 ;Buruh;;TIDAK;0;TIDAK;0;TIDAK;TIDAK;;INDONESIA;;
Deni Cendrianto;;L;;;;;Bandung;1979-11-04;3217060411790010;;3743757659200012;Guru Honor Sekolah;Guru Mapel;1;Perumahan Cilame Indah No. 38 Blok B RT.03 RW. 20 Desa Cilame Kec. Ngamprah;3;20;;Cilame;Kec. Ngamprah;40552;-;08562173508;deni.cendrianto@gmail.com;;1;;;034/102.08/SMU.BTR/KP/2003;2003-07-01;Komite Sekolah;-;Sekolah;Mimin Aminah;KAWIN;Santi;197910252009012004;PNS/TNI/Polri;;TIDAK;0;TIDAK;0;TIDAK;TIDAK;261010748421000;INDONESIA;;
Dewi Pursita;-;P;;;;;Bandung;1967-08-24;3217096408670001;-;8156745647300033;Guru Honor Sekolah;Guru Mapel;1;Kp. Sakola no. 27;1;11;02 Cipatat;Cipatat;Kec. Cipatat;40754;02286861360;081395357775;dewipursita67@gmail.com;;1;;;010/1.02.10/SMU.08/KP/2001;2001-07-27;Kepala Sekolah;-;Sekolah;Aisyah;KAWIN;Drs. Agus Setiawan;-                 ;Lainnya;;TIDAK;0;TIDAK;0;TIDAK;TIDAK;269255832421000;INDONESIA;;
Dewi Ratnaningsih;;P;;;;;Bandung;1978-05-05;3217114505780030;;3837756658300052;Guru Honor Sekolah;Guru Mapel;1;Kp. Manapa No.2 RT.01 RW.04 Desa Karangtanjung Kec. Cililin;1;4;desa manapa;karang tanjung;Kec. Cililin;40562;;081221413953;ratnaningsihdewi13@gmail.com;;1;;;022/102.08/SMU.BTR/KP/2003;2003-07-01;Kepala Sekolah;-;Sekolah;lili suliah;KAWIN;H.Dasep Rosmaya,skm;196512181991031004;PNS/TNI/Polri;;TIDAK;0;TIDAK;0;TIDAK;TIDAK;142103837421000;INDONESIA;;
Dudi Haryadi;197005172007011036;L;;;;;Bandung;1970-05-17;3217091705700006;;5849748650200022;PNS Depag;Guru Mapel;1;Kp. Sinarmukti RT.03 RW.04 Desa Selacau Kec. Batujajar;3;4;Selacau;Selacau;Kec. Batujajar;40561;0226865427;085721833111;;;1;Kw.10.1/2/KP.00.3/3860.154/2008;2007-01-01;Kw.10.1/2/KP.00.3/3860.154/2008;2007-01-01;Pemerintah Pusat;III/b;APBD Kabupaten/Kota;Julaeha;BELUM KAWIN;;;Tidak bekerja;2009-09-01;TIDAK;0;TIDAK;0;TIDAK;TIDAK;783554629421000;INDONESIA;;
Ecep Jaja Miharja;196911072008011006;L;;;;;Bandung;1969-11-07;3277010711690017;-;5439747650200033;PNS;Guru Mapel;1;Kandangjarah ;3;14;Cibeber;Cibeber;Kec. Cimahi Selatan;40531;0226670741;081573173369;ecepjajamiharja@yahoo.com;;1;813.3/Kep.408-Kepeg/2008;2008-01-01;814/1823-disdik/2003;2003-06-01;Pemerintah Kab/Kota;III/c;APBN;Mala Komala;KAWIN;Rini Hartini;197611152008012007;PNS/TNI/Polri;2009-12-01;TIDAK;0;TIDAK;0;TIDAK;TIDAK;269708764421000;INDONESIA;;
Efa Rifania;;P;;;;;Bandung;1981-08-30;3217097008810009;;4162759659300003;Guru Honor Sekolah;Guru Mapel;1;Cibungur;3;11;;Batujajar Timur;Kec. Batujajar;40561;02270815767;081395109014;efarifania@yahoo.co.id;;1;;;896.1/123.24/kur/2004;2014-07-01;Kepala Sekolah;-;Sekolah;Cucu Fathonah;KAWIN;Rd.Hera Indra Susanto;31020550881081    ;PNS/TNI/Polri;;TIDAK;0;TIDAK;0;TIDAK;TIDAK;461315863421000;INDONESIA;;
Eneng Rosmawati;;P;;;;;Bandung;1986-10-25;3217106510860007;;;Tenaga Honor Sekolah;Tenaga Administrasi Sekolah;1;Kp. Babakan Cianjur;2;3;cihampelas;cihampelas;Kec. Cihampelas;40767;;081322268763;;;1;;;869 / 209 - kepeg / 2012;2012-07-16;Kepala Sekolah;;Sekolah;Komala;BELUM KAWIN;;;Tidak bekerja;;TIDAK;0;TIDAK;0;TIDAK;TIDAK;;INDONESIA;;
Engkun Kurnia;195812261982031008;L;;;;;Sumedang;1958-12-26;3277012612580001;3277012612580001;5558736638200023;PNS;Guru BK;1;Jl. MIG III No. 2 Melong Green Garden;5;29;Merlong;Melong;Kec. Cimahi Selatan;;022-6040594;08122186727;;;1;58232/C/2/1982;1982-03-01;0502/I/I.02.Kep/C. 1b.83;1983-07-01;Pemerintah Pusat;IV/b;APBD Kabupaten/Kota;Rum'naah;KAWIN;Nunung Nurjanah;;Tidak bekerja;1983-07-01;TIDAK;0;TIDAK;0;TIDAK;TIDAK;;INDONESIA;;
Eni Hernawati;-;P;;;;;Bandung;1979-07-04;3217104407790026;-;9739757658300032;Tenaga Honor Sekolah;Tenaga Administrasi Sekolah;1;Kp Cihamirung;1;4;Mekarjaya;Mekarjaya;Kec. Cihampelas;40562;-;087824642351;hernawatieni79@gmail.com;;1;;;896.1/116-Kepeg/2004;2004-07-01;Kepala Sekolah;-;Sekolah;Epon;KAWIN;Iwan Setiawan;-                 ;Buruh;;TIDAK;0;TIDAK;0;TIDAK;TIDAK;;INDONESIA;;
Erlina Ariyani;197301102000122002;P;;;;;Bandung;1973-01-10;3217095001730002;;0442751652300022;PNS;Guru Mapel;1;Kp. Citunjung RT.03 RW.01 Desa Galanggang Kec. Batujajar;3;1;;galanggang;Kec. Batujajar;40561;0226864375;08122081080;;;1;3183/I02.3/KP/2000;2000-12-01;3183/I02.3/KP/2000;2000-12-01;Pemerintah Pusat;IV/a;APBN;muawanah;BELUM KAWIN;;;Tidak bekerja;2002-06-01;TIDAK;0;TIDAK;0;TIDAK;TIDAK;340240340421000;INDONESIA;;
Eti Sofiati;196001211993032001;P;;;;;Bandung;1960-01-21;3217096101600001;;7453737639300012;PNS;Guru Mapel;1;Jl. Sinarmukti;2;4;;Selacau;Kec. Batujajar;40561;0226865495;;;;1;0929/102.Kep/C.PB.1.1993;1993-03-01;0929/102.Kep/C.PB.1.1993;1993-03-01;Pemerintah Pusat;IV/a;APBN;Yayah Sofiah;KAWIN;Syahbandar A.;-                 ;Tidak bekerja;1994-12-01;TIDAK;0;TIDAK;0;TIDAK;TIDAK;269139440421000;INDONESIA;;
Evi Lutfia Fauziah;197801112009012002;P;;;;;Bandung;1978-01-11;3204325101780001;;9443756657210082;PNS;Guru Mapel;1;Jl. Laswi No. 291 Cangkring;1;15;;Jelekong;Kec. Baleendah;40375;-;08122182074;evilutfia78@gmail.com;;1;813.3/Kep.211-BKPP/2009;2009-01-01;813.3/Kep.211-BKPP/2009;2009-01-01;Pemerintah Kab/Kota;III/b;APBD Kabupaten/Kota;Hj.I.Robiah;KAWIN;Yopi Wiguna;;Karyawan Swasta;2010-04-10;TIDAK;0;TIDAK;0;TIDAK;TIDAK;269125506445000;INDONESIA;;
Gugum Gumilar;;L;;;;;Bandung;1978-07-11;3273041107780004;;0439756658200013;Guru Honor Sekolah;Guru Mapel;1;Jl. Kopo Gg. Lapang 1 Bandung;9;4;;Kopo;Kec. Bojong Loa Kaler;40233;-;085220404175;goem78@gmail.com;;1;;;896.1/123.21/KUR/2004;2004-07-01;Kepala Sekolah;-;Sekolah;Rukaesih;KAWIN;Dewi Nurhaeni;;Tidak bekerja;;TIDAK;0;TIDAK;0;TIDAK;TIDAK;269104881422000;INDONESIA;;
Haris Hasanudin;;L;;;;;Bandung;1976-01-10;3217091001760008;;9442754656200012;Guru Honor Sekolah;Guru Mapel;1;Blk Pasar Batujajar No. 20 RT. 03 RW.10 Kec. Batujajar;3;10;-;Batujajar Barat;Kec. Batujajar;40561;;087822399767;hasanudin1001@gmail.com;;1;;;108/102.10/SMU-Btr/Kp/2002;2002-07-01;Kepala Sekolah;-;Sekolah;Hj. Uka Sukaesih;KAWIN;IMAS MASNIAH;;Lainnya;;TIDAK;0;TIDAK;0;TIDAK;TIDAK;447054107421000;INDONESIA;;
Heny Suhaeni;197605312008012002;P;;;;;Majalengka;1976-05-31;3277017105760008;;4863754657200002;PNS;Guru Mapel;1;Jl. Ibu Sangki No. 21 A  Kel. Cibeber Kec. Cimahi Selatan;1;14;;Cibeber;Kec. Cimahi Selatan;40531;-;081320931975;;;1;88 Tahun 2008;2008-01-01;290.a.992 Tahun 2003;2003-06-01;Pemerintah Kab/Kota;III/c;APBD Kabupaten/Kota;Saadah;KAWIN;Agus Mochamad Sopyan;197508142008011009;PNS/TNI/Polri;2010-01-01;TIDAK;0;TIDAK;0;TIDAK;TIDAK;785745639421000;INDONESIA;;
Husni Mubarok;197606042010011006;L;;;;;Bandung;1976-06-04;3217090406760016;;3738754656200022;PNS;Guru BK;1;Kp. Cibogo;4;12;;Pangauban;Kec. Batujajar;40561;;085624841976;hmubarokbk@gmail.com;;1;813.3/Kep.192-BKPP/2010;2011-04-01;821.13/Kep.192/BKPP/2011;2011-04-01;Pemerintah Kab/Kota;III/b;APBD Kabupaten/Kota;Omah Rubaeah;KAWIN;Laela Nurhayati;;Lainnya;2011-04-01;TIDAK;0;TIDAK;0;TIDAK;TIDAK;;INDONESIA;;
Ida Widarti;196511101995122001;P;;;;;Bandung;1965-11-10;3204325011650023;;1442743646300123;PNS;Guru BK;1;Jln Raya Laswi;3;7;Cangkring;Jelekong;Kec. Baleendah;40375;0226033230;081320781757;;;1;76172/A2/KP/1995;1995-12-01;76172/A2/KP/1995;1995-12-01;Pemerintah Pusat;IV/a;APBD Provinsi;HJ.Enes Mariam;KAWIN;Dadang Pramady;;Karyawan Swasta;1997-07-01;TIDAK;0;TIDAK;0;TIDAK;TIDAK;575427513349000;INDONESIA;;
Ikbal Nopiandi;197611282008041001;L;;;;;Palembang;1976-11-28;3277012811760009;;6460754655200003;PNS;Guru Mapel;1; Budi Bhakti No. 1 ;3;11;Kompleks Aneka Bakti;Leuwigajah;Kec. Cimahi Selatan;40532;0226676155;081933374065;Bos1Putra@gmail.com;;1;188.45/056/BKD/2008;2008-04-01;188.45/056/BKD/2008;2008-04-01;Pemerintah Pusat;III/b;APBN;Hj. Rohana;BELUM KAWIN;;;Tidak bekerja;2009-10-01;TIDAK;0;TIDAK;0;TIDAK;TIDAK;361963374421000;INDONESIA;;
Ilham Sandi Permana;198508032011011003;L;;;;;Bandung;1985-08-03;3217080308850009;;9135763665200013;PNS;Guru Mapel;1;Jl. Letkol G.A Manulang No.22 ;1;5;;Padalarang;Kec. Padalarang;40553;022-6806087;85624056347;ilhamsandipermana@rocketmail.com;;1;813.3/Kep.079-BKPP/2011;2011-01-01;813.3/Kep.079-BKPP/2011;2011-01-01;Pemerintah Kab/Kota;III/b;APBN;Dede Jamilah;KAWIN;Linda Mercyana;;Tidak bekerja;2012-04-01;TIDAK;0;TIDAK;0;TIDAK;TIDAK;;INDONESIA;;
Indriani Hartanti;198504132010012005;P;;;;;Sumedang;1985-04-13;3211145304850013;;3750763664300032;PNS;Guru Mapel;1;Jl. Dalem Tanubaya No.01;3;5;Manabaya;Sindangpakuon;Kec. Cimanggung;45364;0227790506;08172321371;;;1;8133/Kep.176/BKPP/2010;2010-01-01;8133/Kep.176/BKPP/2010;2010-01-01;Pemerintah Kab/Kota;III/b;APBD Kabupaten/Kota;Cucu Sutini Rochaeti;KAWIN;Erik Sutendi;;Wiraswasta;2011-04-01;TIDAK;0;TIDAK;0;TIDAK;TIDAK;;INDONESIA;;
Iwan Ikhwan Haryadi;;L;;;;;Bandung;1972-10-12;3217101210720020;;0542750652200033;Tenaga Honor Sekolah;Tenaga Administrasi Sekolah;1;Kp. Gerang ;1;2;Citapen;Citapen;Kec. Cihampelas;40561;-;082126844855;;;1;;;800/I.02.10/SMU.08/KP2002;2002-07-01;Kepala Sekolah;-;Sekolah;Aroh Rohaniati;KAWIN;Anis Mustika;;Tidak bekerja;;TIDAK;0;TIDAK;0;TIDAK;TIDAK;;INDONESIA;;
Iwan Rudi Setiawan;196401051992021001;L;;;;;Bandung;1964-01-05;3217110501640004;;6833742642200002;PNS;Guru Mapel;1;Sukatani RT.01 RW.5 Desa Cililin Kec. Cililin;1;5; Cililin III;Cililin;Kec. Cililin;40562;0226940741;085221781964;iwanrs64@gmail.com;;1;1555/i02.KEP/C.PB.1.1992;1992-02-01;1555/i02.KEP/C.PB.1.1992;1992-02-01;Pemerintah Pusat;-;APBN;Awangsih Sutriani;KAWIN;Tuti Herawati;-                 ;Tidak bekerja;1994-01-01;TIDAK;0;TIDAK;0;TIDAK;TIDAK;;INDONESIA;;
Kholik;;L;;;;;Jakarta;1976-03-17;3217091703760006;;20227902176001  ;Tenaga Honor Sekolah;Tenaga Administrasi Sekolah;1;Jalantir;1;13;Selacau;Selacau;Kec. Batujajar;40561;;087825821466;;;1;;;896/209-KEpeg/2012;2012-07-01;Kepala Sekolah;;Sekolah;NURMALA;KAWIN;Rita juhaini;;Tidak bekerja;;TIDAK;0;TIDAK;0;TIDAK;TIDAK;;INDONESIA;;
Lilis Agustiana;198008172007012006;P;;;;;Sumedang;1980-08-17;3217095708800040;;0149758659300043;PNS;Guru Mapel;1;Kp. Jalantir ;2;14;Jalantir;Selacau;Kec. Batujajar;40561;-;082121070407;;;1;813/Kep.273.BKD/2007;2007-01-01;814/1731-Sub Kepeg/Disdik/2003;2003-06-01;Pemerintah Pusat;III/c;APBN;Titing Tutiana-;KAWIN;Dwi Setiawan;;PNS/TNI/Polri;2008-12-01;TIDAK;0;TIDAK;0;TIDAK;TIDAK;269254470421000;INDONESIA;;
Makhatir Muhammad;198508302011011002;L;;;;;Bandung;1985-08-30;3204053008850014;;8162763665110023;PNS;Guru Mapel;1;Jl. Tanjakan Muncang No. 7 ;2;7;;Cileunyi wetan;Kec. Cileunyi;40393;0227814545;081394254321;;;1;813.3/Kep.138-BKPP/2011;2011-01-01;813.3/Kep.138-BKPP/2011;2011-01-01;Pemerintah Kab/Kota;III/b;APBD Kabupaten/Kota;Nur Djulaeha;KAWIN;Lusiana Susanti;;Tidak bekerja;2012-04-01;TIDAK;0;TIDAK;0;TIDAK;TIDAK;;INDONESIA;;
Marinah;196706251995122003;P;;;;;Bangka;1967-06-25;3217106506670002;-;1957745647300042;PNS;Guru Mapel;1;Kp. Cihampelas RT.01 RW.02 Desa Cihampelas Kec. Cihampelas;1;1;Cihampelas;Cihampelas;Kec. Batujajar;40562;02273926388;081322196191;Marinahrusmana@Yahoo.co.id;;1;78439/A2?KP/1995;1995-12-01;78439/A2/KP/1995;1995-12-01;Pemerintah Pusat;IV/a;APBN;Arusiah;KAWIN;Samid Rusmana;196311071992031004;PNS/TNI/Polri;1997-07-01;TIDAK;0;TIDAK;0;TIDAK;TIDAK;269253241421000;INDONESIA;;
Moch. Amsori Sonjaya;196005221985031006;L;;;;;Bandung;1960-05-22;3217092205600001;;7854738641200002;PNS;Guru Mapel;1;Blok Sukamaju RT.03 RW.13 Desa Batujajar Barat Kec. Batujajar;3;13;;Batujajar Barat;Kec. Batujajar;40561;-;085222357810;;;1;1569/102.Kep/C.PB.85;1985-03-01;1569/I02.Kep/C.PB.1.85;1985-03-01;Pemerintah Pusat;IV/a;APBN;Iroh;KAWIN;N. Uar Warsilah;-                 ;Tidak bekerja;1986-11-01;TIDAK;0;TIDAK;0;TIDAK;TIDAK;256380825421000;INDONESIA;;
Neneng Henny Sariningsih;197112042007012003;P;;;;;Bandung;1971-12-04;3217104412710005;;5533749652300053;PNS;Guru Mapel;1;Jl. Citapen Kp. Gerang RT. 2 RW. 03 Desa Citapen Kec. Cihampelas;2;3;citapen;citapen;Kec. Batujajar;40562;-;085224945787;;;1;813/Kep.273-BKD/2007;2007-01-01;814/1785-Sub kepeg/Disdik/2003;2003-06-01;Pemerintah Kab/Kota;III/c;APBN;Yayah Rokayah;KAWIN;A. MULYANA;;Karyawan Swasta;2008-01-01;TIDAK;0;TIDAK;0;TIDAK;TIDAK;341213072421000;INDONESIA;;
Rahmat Hidayat;;L;;;;;Bandung;1965-02-16;3217091602650008;;3548743646200012;Tenaga Honor Sekolah;Tenaga Administrasi Sekolah;1;Kp. Jalantir RT.01 RW.13 Desa Selacau Kec. Batujajar;1;13;Jalantir;-Selacau;Kec. Batujajar;40561;-;08782581466;;;1;;;800/102.10/SMU.08/KP/2003;2003-07-01;Kepala Sekolah;-;Sekolah;Anah;KAWIN;Mulyati;;Tidak bekerja;;TIDAK;0;TIDAK;0;TIDAK;TIDAK;;INDONESIA;;
Rani Haerani;197706072010012009;P;;;;;Bandung;1977-06-07;3217064706770018;;1038755657300033;PNS;Guru Mapel;1;Graha Nuansa Hijau Cidahu D3 RT.4 RW.1 Desa Tanimulya Kec. Ngamprah;4;1;Cidahu;Tani Mulya;Kec. Ngamprah;40522;-;081394326444;ranihaerani13@gmail.com;;1;813.3/Kep.226-BKPP/2010;2010-01-01;813.3/Kep.226-BKPP/2010;2010-01-01;Pemerintah Kab/Kota;III/a;APBN;Enung Dewi Sukaesih;KAWIN;Apriyanto Handoyono;-                 ;Wirausaha;2010-04-01;TIDAK;0;TIDAK;0;TIDAK;TIDAK;246819957421000;INDONESIA;;
Renny Anggraeni;198801262011012002;P;;;;;Bandung;1988-01-26;3217096601880004;;8458766667210042;PNS;Guru Mapel;1;Puri Indah Lestari blok C 1 no 22;2;16;;Batujajar timur;Kec. Batujajar;40561;-;085314519630;;;1;813.3/Kep.137-BKPP/2011;2011-01-01;813.3/Kep.137-BKPP/2011;2011-01-01;Pemerintah Pusat;III/b;Lainnya;Nani Sumarni;KAWIN;Hendy Susilo;198604272011011002;PNS/TNI/Polri;2012-04-01;TIDAK;0;TIDAK;0;TIDAK;TIDAK;546155300421000;INDONESIA;;
Riana Abas;196704082007011007;L;;;;;Garut;1967-04-08;3217090804670005;-;2136745645200003;PNS;Guru Mapel;1;Perum Giri Asih Permai;1;14;;Giri Asih;Kec. Batujajar;40561;-;082115026172;;;1;813/Kep.273-BKD/2007;2007-01-01;813/Kep.273-BKD/2007;2007-01-01;Pemerintah Pusat;III/c;APBN;Dedeh H.;KAWIN;Heske Agustin;-                 ;Tidak bekerja;2008-12-01;TIDAK;0;TIDAK;0;TIDAK;TIDAK;269251831421000;INDONESIA;;
Rina Anggraeni;198008022010012005;P;;;;;Bandung;1980-08-02;3204324208800022;-;9134758660300043;PNS;Guru Mapel;1;Jl. Anggadireja ;3;9;cigado;Baleendah;Kec. Baleendah;40375;-;081395428251;rinaabey@gmail.com;;1;813.3/Kep.235-BKPP/2010;2010-01-01;813.3/Kep.235-BKPP/2010;2010-01-01;Pemerintah Kab/Kota;III/b;APBN;Ida Hadijah;KAWIN;Hendara somantri;81041011          ;PNS/TNI/Polri;2011-04-01;TIDAK;0;TIDAK;0;TIDAK;TIDAK;361979586445000;INDONESIA;;
Rini Rahmayanti;198603272010012001;P;;;;;Bandung;1986-03-27;3204116703860006;;6659764664300012;PNS;Guru Mapel;1;kp. pasantren Rt.03 Rw.06 desa sukamukti kec. ketapang;3;6;kp. pasantren;sukamukti;Kec. Katapang;40971;-;087722797954;rahmayanti_rini@yahoo.co.id;;1;813.3/kep.227-BKPP/2010;2010-01-01;813.3/kep.227-BKPP/2010;2010-01-01;Pemerintah Kab/Kota;III/b;APBD Kabupaten/Kota;Lilis Rokhaeti;KAWIN;Duddy Juliansyah;85071277          ;PNS/TNI/Polri;2011-04-01;TIDAK;0;TIDAK;0;TIDAK;TIDAK;361980501455000;INDONESIA;;
Rohayati;196703292000032003;P;;;;;Bandung;1967-03-29;3217066903670007;-;7661745647300042;PNS;Guru Mapel;1;Kp. Sasak Beusi No. 115 RT.03 RW.04 Desa Gadobangkong Kec. Ngamprah;3;4;Gadobangkong;Gadobangkong;Kec. Ngamprah;40552;-;085223934235;;;1;11369/A2/Kp/2002;2000-03-01;11369/A2/Kp/2002;2000-03-01;Pemerintah Kab/Kota;IV/a;APBN;Hj. Muli;KAWIN;Eko Budiyanto;-                 ;Tidak bekerja;2001-04-01;TIDAK;0;TIDAK;0;TIDAK;TIDAK;244185211443000;INDONESIA;;
Ros Aminah;;P;;;;;Bandung;1970-11-27;3217096711700001;;7459750651300013;Guru Honor Sekolah;Guru Mapel;1;Kp. Gunung Leutik No. 28 RT.01 RW.15 Desa Giriasih Kec. Batujajar;1;15;Kp. Gunung Leutik;Giri Asih;Kec. Batujajar;40561;-;081214626833;rosaminahsahiba@yahoo.com;;1;;;896/1819-Kepeg/2009;2009-01-01;Kepala Sekolah;-;Sekolah;Rosmaya;KAWIN;Asep Bagbang Sudarsono;196201311984031005;PNS/TNI/Polri;;TIDAK;0;TIDAK;0;TIDAK;TIDAK;249652983421000;INDONESIA;;
Rully hermansyah;195510181987031002;L;;;;;Banten;1998-08-22;3217092208980004;;;Tenaga Honor Sekolah;Tenaga Administrasi Sekolah;1;Kp.jalantir;2;14;jalantir;slacau;Kec. Batujajar;40561;;085720045223;;;1;;;896/215 A - Kepeg /2013;2013-10-03;Kepala Sekolah;;Sekolah;Sudenti;BELUM KAWIN;;;Tidak bekerja;;TIDAK;0;TIDAK;0;TIDAK;TIDAK;;INDONESIA;;
S. Suryaman;;L;;;;;Bandung;1965-01-01;3217100101650061;;7433743644200132;Guru Honor Sekolah;Guru Mapel;1;Jl. Raya  Cihampelas ;7;2;;Cihampelas;Kec. Cihampelas;40562;-;087822242255;;;1;;;0023/102.08/SMU.BTJ/kp/2003;2003-07-01;Kepala Sekolah;-;Lainnya;Laeliah;KAWIN;sa'adah;;Karyawan Swasta;;YA;0;TIDAK;0;TIDAK;TIDAK;;INDONESIA;;
Sadili;196102071983031007;L;;;;;Mande;1961-02-07;3217100702610010;-;1034739639200003;PNS;Tenaga Administrasi Sekolah;1;Kp. Mande No.29 ;2;5;-;Mekarmukti;Kec. Batujajar;40562;-;81320111785;;;1;0843/2/102.Kep/C 2b 1984         ;1984-07-01;0843/2/102. Kep/C 2B 1984;1984-07-01;Pemerintah Pusat;III/d;APBN;U. Sukarsih;KAWIN;Aah Sumarni;-                 ;Tidak bekerja;2014-04-01;TIDAK;0;TIDAK;0;TIDAK;TIDAK;341179398421000;INDONESIA;;
Salimudin;196309051987031011;L;;;;;Bandung;1963-09-05;3217100509630001;-;0237741643200063;PNS;Guru Mapel;1;Jl. Cagak Citapen NO.17 RT.07 RW.04 Desa Citapen Kec. Cihampelas;7;4;Kp. Jalan Cagak Citapen;Citapen;Kec. Cihampelas;40562;0222030093;085659204479;asal.senisunda@gamil.com;;1;0406/102.Kep/C.PB.1/87;1987-03-01;9125/1/102.Kep/DEPDIKBUD;1987-03-01;Pemerintah Propinsi;IV/a;APBN;E.SAODAH;KAWIN;Tuti Suryati;196408051988032014;PNS/TNI/Polri;1987-03-01;TIDAK;0;TIDAK;0;TIDAK;TIDAK;269178984421000;INDONESIA;;
Santi Windarti;197612302007012011;P;;;;;Cililin;1976-12-30;3217097012760007;;9562754655300013;PNS;Guru Mapel;1;Kp. Jalantir;2;13;Selacau;Selacau;Kec. Batujajar;40561;02295197828;087825853994;santiwindarti@gmail.com;;1;813/kep.273-BKD/2007;2007-01-01;814/1620-sub kepeg/disdik/2003;2003-06-01;Pemerintah Pusat;III/c;APBD Kabupaten/Kota;Oom Rohmawati;KAWIN;Yadi Rusyadi;-                 ;Lainnya;2008-12-01;TIDAK;0;TIDAK;0;TIDAK;TIDAK;;INDONESIA;;
Siti Masitoh;198002222009012003;P;;;;;Cililin;1980-02-22;3217106202800005;;4554758659300042;PNS;Guru Mapel;1;Jl. Neglasari NO.51 RT.02 RW.07 Desa Citapen Kec. Cihampelas;2;7;;Citapen;Kec. Cihampelas;40562;-;083820874040;khenritogeulis@gmail.com;;1;813.3/kep.235-BKPP/2009;2009-01-01;813.3/kep.235-BKPP/2009;2009-01-01;Pemerintah Kab/Kota;III/b;APBN;Hj. Komariah;KAWIN;Ridwan Taupik ;;PNS/TNI/Polri;2010-04-01;TIDAK;0;TIDAK;0;TIDAK;TIDAK;553874598421000;INDONESIA;;
Siti Patimah;;P;;;;;Karawang;1979-12-27;3217096712790002;;1559757658300013;Tenaga Honor Sekolah;Tenaga Administrasi Sekolah;1;Perum Batujajar Indah 2 Blok A.1 No.51 RT.03 RW.15 Batujajar Timur;3;15;;Batujajar Timur;Kec. Batujajar;40561;02292249066;085721812220;sitipatimah_tkj@yahoo.co.id;;1;;;800/102.10/SMU.08/KP/2003;2003-07-01;Kepala Sekolah;-;Sekolah;Enab;KAWIN;Isnandar Ismail;;Karyawan Swasta;;TIDAK;0;TIDAK;0;TIDAK;TIDAK;;INDONESIA;;
Sri Laela Ningsih;196403311989032005;P;;;;;Bandung;1964-03-31;3204187103640001;;5663742642300002;PNS;Guru Mapel;1;Kp.Sumur Bandung Rt.03 Rw.09 Desa. Cililin Kec. Cililin;3;9;Cililin;Cililin;Kec. Cililin;40562;-;085624804801;srilaela.ningsih@yahoo.com;;1;51929/A2.III.1/C/1989;1989-03-01;51929/A2.III.1/C/1989;1989-03-01;Pemerintah Pusat;IV/a;APBD Provinsi;Atikah;KAWIN;Heri Hernadi;195910191982021002;PNS/TNI/Polri;1990-11-01;TIDAK;0;TIDAK;0;TIDAK;TIDAK;269262416421000;INDONESIA;;
Sri Murniasih;196403101987032009;P;;;;;Purwakarta;1964-03-10;3217115003640014;;1335742643300033;PNS;Guru Mapel;1;Sumur Bandung, ;5;9;-;Desa Cililin;Kec. Cililin;40563;-;081316703152;srimurniasih64@gmail.com;;1;0479/I02.Kep/C.PB.1.1987;1987-05-19;0479/I02.Kep/C.PB.1.1987;1987-05-19;Pemerintah Pusat;IV/a;APBN;Engkom Komariah;KAWIN;Medi Efendi;196109241983021001;PNS/TNI/Polri;1988-12-01;TIDAK;0;TIDAK;0;TIDAK;TIDAK;258462597421000;INDONESIA;;
Sri Rosyantini;198404172010012011;P;;;;;Bandung;1984-04-17;3204155704840009;;9749762663300082;PNS;Guru Mapel;1;Kp. Ciruntah ;3;4;Tribaktimulya;Tribaktimulya;Kec. Pangalengan;40378;-;08122404932;srosyantini@yahoo.com;;1;813.3/Kep.248-BKPP/2010;2010-01-01;813.3/Kep.248-BKPP/2010;2010-01-01;Pemerintah Kab/Kota;III/b;APBD Kabupaten/Kota;Ai Aisyah;KAWIN;Agus Gustiwa;-                 ;Wiraswasta;2011-04-01;TIDAK;0;TIDAK;0;TIDAK;TIDAK;361979339445000;INDONESIA;;
Sri Yudaningsih;196211121996012001;P;;;;;Pakem;1962-11-12;321708521620005 ;;6543740641300023;PNS;Guru BK;1;Pondok cipta mas 2;2;11;laksanamekar;laksanamekar;Kec. Padalarang;40553;02268683019;085314025220;sriyuda@23.gmil.com;;1;82865/A2//KP/1995;1995-01-01;82865/ A2/KP/1995;1996-01-01;Pemerintah Pusat;IV/a;APBD Kabupaten/Kota;Sutarsih;KAWIN;Drs. sudiyono;196310251994121001;PNS/TNI/Polri;1998-01-01;TIDAK;0;TIDAK;0;TIDAK;TIDAK;269171401421000;INDONESIA;;
Sudiyono;196310251994121001;L;;;;;Klaten;1963-10-25;3217082510630007;;2357741641200003;PNS;Guru BK;1;Pondok Ciptamas  2;2;11;Laksanamekar;Laksanamekar;Kec. Padalarang;40533;02286863019;087822150167;diyonsudiyono63@gmail.com;;1;83591/A2/C/1994;1994-12-01;83591/A2/C/1994;1994-12-01;Pemerintah Pusat;IV/a;APBN;Sukinem;KAWIN;Sri Yudaningsih;196211121996012001;PNS/TNI/Polri;1996-12-01;TIDAK;0;TIDAK;0;TIDAK;TIDAK;269171401421000;INDONESIA;;
Suherman;;L;;;;;Cililin;1976-03-08;3217100803760011;;5640754655200032;Guru Honor Sekolah;Guru Mapel;1;Kp. Selakopi RT.05 RW.08 Desa Cihampelas Kec. Cihampelas;1;8;Selakopi;selakopi;Kec. Cihampelas;40562;-;087821557316;alkahfinauraherman@yahoo.co.id;;1;;;896 / 1819 - Kepeg / 2009;2009-07-01;Kepala Sekolah;-;Sekolah;Entang Jubaidah;KAWIN;Neng Lisnawati;;Lainnya;;TIDAK;0;TIDAK;0;TIDAK;TIDAK;269261848421000;INDONESIA;;
Suherman;;L;;;;;Batujajar;1977-02-10;3217091002770008;;0542755657200052;Tenaga Honor Sekolah;Tenaga Administrasi Sekolah;1;Kp. Jalantir RT.02 RW.14 Desa Selacau Kec. Batujajar;2;14;Jalantir;-Selacau;Kec. Batujajar;40561;-;085295281109;abahjuhanta27@yahoo.com;;1;;;896/1370 A-Kepeg/2008;2008-07-08;Kepala Sekolah;-;Sekolah;Anik;KAWIN;Nurhayati;3217095010780042  ;Tidak bekerja;;TIDAK;0;TIDAK;0;TIDAK;TIDAK;;INDONESIA;;
Suryana;196511241998021001;L;;;;;Balikpapan;1965-11-24;321711241165001 ;-;0456743646200023;PNS;Guru Mapel;1;Kp. Cikakak RT.01 RW.02 Desa Batulayang Kec. Cililin;1;2;-;BATULAYANG;Kec. Cililin;40562;0226941008;085294918099;suryana.krisnadi@yahoo.com;;1;6101/A2/KP/1998;1998-02-01;6101/A2/KP/1998;1998-03-01;Pemerintah Pusat;IV/a;APBN;U. KARWATI;KAWIN;SRI UMDATUFAROH;196703211996012001;PNS/TNI/Polri;1999-03-01;TIDAK;0;TIDAK;0;TIDAK;TIDAK;269256483421000;INDONESIA;;
Sutisna;;L;;;;;Bandung;1976-02-04;3217040402770004;;5536754659200002;Tenaga Honor Sekolah;Tenaga Administrasi Sekolah;1;Kp. Sirnagalih RT.05 RW.02 Desa Cikalong Kec. Cikalong Wetan;5;2;Kp.sirnagalih;Cikalong;Kec. Cikalong Wetan;40556;-;087822242099;;;1;;;896/215 A -Kepeg/2013;2012-07-16;Kepala Sekolah;-;Sekolah;Supen;BELUM KAWIN;;;Tidak bekerja;;TIDAK;0;TIDAK;0;TIDAK;TIDAK;;INDONESIA;;
Syamsudin;;L;;;;;Cililin;1981-02-20;3217102002810003;;3552759661200012;Guru Honor Sekolah;Guru Mapel;1;Kp. Cilambuuh;3;8;;Mekarjaya;Kec. Batujajar;40562;-;085220270030;;;1;;;896/972-Kepeg/2007;2007-07-01;Komite Sekolah;-;Lainnya;Lilis Widiatiningsih;KAWIN;Dewi Pujawati;;Tidak bekerja;;TIDAK;0;TIDAK;0;TIDAK;TIDAK;;INDONESIA;;
Tanti Putriana Riyanti;198607282011012003;P;;;;;Bandung;1986-07-28;3204386807860001;;4060764665300063;PNS;Guru Mapel;1;Sukarasa No.162 Desa Pasirjambu Kec. Pasirjambu;4;5;Sukarasa;Pasirjambu;Kec. Pasirjambu;40972;0225928753;082119040404;ptantie@yahoo.com;;1;813.3/Kap.114-BKPP/2011;2011-01-01;813.3/Kap.114-BKPP/2011;2011-01-01;Pemerintah Kab/Kota;III/b;APBD Provinsi;H. Popon Sopianah;KAWIN;Bambang Aditia Maulana;198512252011011002;PNS/TNI/Polri;2012-04-01;TIDAK;0;TIDAK;0;TIDAK;TIDAK;451958375445999;INDONESIA;;
Taufik Hidayat;;L;;;;;Serang;1985-04-13;3217091304850003;;9745763664200032;Guru Honor Sekolah;Guru Mapel;1;Jl. Pancasila H. 17 (dekat Portal) RT.1 RW.7 Desa Galanggang Kec. Batujajar;1;7;Galanggang;Galanggang;Kec. Batujajar;40561;-;085659207285;gedehidayat@gmail.com;;1;;;896/1819-Kepeg/2009;2009-07-01;Kepala Sekolah;-;Sekolah;E. Jubaedah;BELUM KAWIN;;;Tidak bekerja;;TIDAK;0;TIDAK;0;TIDAK;TIDAK;;INDONESIA;;
Teti Rustini;196505151994122002;P;;;;;Bandung;1965-05-15;327025505690043 ;;0847743644300072;PNS;Guru Mapel;1;Gg. Ichwan No. 214 ;2;2;Gg.Ikwan;Karang Mekar;Kec. Cimahi Tengah;40523;0226641276;085722250419;;;1;83917/A2/C/1994;1994-12-01;CPNS;1994-12-01;Pemerintah Pusat;III/a;APBN;N.Ternaya;KAWIN;Zainul Arifin Pane,S.Pd;;Karyawan Swasta;1997-06-01;TIDAK;0;TIDAK;0;TIDAK;TIDAK;;INDONESIA;;
Tian Ramdhan Nugraha;198306192011011003;L;;;;;Sumedang;1983-06-19;321171906830009 ;;8951761662200002;PNS;Guru Mapel;1;Desa Cimalaka;1;3;Cimalaka;Cimalaka;Kec. Conggeang;45391;-;082119676100;;;1;813.3/Kep.075-BKPP/2011;2011-01-01;813.3/Kep.075-BKPP/2011;2011-01-01;Pemerintah Kab/Kota;III/b;APBD Kabupaten/Kota;Jujun Susilawati;KAWIN;Wina Andriani;;Tidak bekerja;2012-04-01;TIDAK;0;TIDAK;0;TIDAK;TIDAK;362727596446000;INDONESIA;;
Tiktik Gantinah;196606251994122001;P;;;;;Bandung;1966-06-25;3217066506660001;;4957744646300032;PNS;Guru Mapel;1;Jl. Mutiara 7 No 10 Permata Cimahi;1;14;Tani Mulya;Tani Mulya;Kec. Ngamprah;40552;0226623934;081809152906;tiktikgantinah@gmail.com;;1;84970/A2/C/1994;1994-12-01;84970/A2/C/1994;1994-12-01;Pemerintah Pusat;IV/a;APBD Provinsi;Aminah;KAWIN;Budiyanto AM;196107111991111001;PNS/TNI/Polri;1997-09-01;TIDAK;0;TIDAK;0;TIDAK;TIDAK;267096873421000;INDONESIA;;
Tina Kustina;198508012010012006;P;;;;;Bandung;1985-08-01;3277014108850023;;5133763665210093;PNS;Guru Mapel;1;Jl. Jabung 11 Blok C 1 No 6 RT.5 RW.36 Desa Melong Kec. Cimahi Selatan;5;36;melong;melong;Kec. Cimahi Selatan;40531;-;081221064138;Tina_bandung@rocketmail.com;;1;813.3/kep.159-BKPP/2010;2010-01-01;813.3/kep.159-BKPP/2010;2010-01-01;Pemerintah Kab/Kota;III/b;APBD Kabupaten/Kota;Elis;KAWIN;Ade Iwan Irawan;83070076          ;PNS/TNI/Polri;2011-04-01;TIDAK;0;TIDAK;0;TIDAK;TIDAK;353007792421999;INDONESIA;;
Tina Prihatina Rahayu;197512202008012005;P;;;;;Banjar;1975-12-20;3217106012750013;;9552753655300023;PNS;Guru Mapel;1;Kp. Neglasari RT.01 RW.07 No. 222 Desa Citapen Kec. Cihampelas;1;7;Neglasari;Citapen;Kec. Cihampelas;40562;-;087822906140;;;1;813.3/Kep.393-Kepeg/2008;2008-01-01;813.3/Kep.393-Kepeg/2008;2008-01-01;Pemerintah Kab/Kota;III/c;APBN;RA. Rusinah;KAWIN;H. Asep Saepudin;197008272005011006;PNS/TNI/Polri;2009-12-01;TIDAK;0;TIDAK;0;TIDAK;TIDAK;269252300421000;INDONESIA;;
Ulfah Afrianti;;P;;;;;Bandung;1991-04-03;3217094304910010;;3735769670300002;Tenaga Honor Sekolah;Tenaga Administrasi Sekolah;1;Kp. Pangauban No. 175;1;5;Pangauban;Pangauban;Kec. Batujajar;40561;-;081224793605;ladyfey_3491@yahoo.com;;1;;;896/1803-Kepeg/2009;2009-07-01;Kepala Sekolah;-;Sekolah;Elih Nurlianti;KAWIN;Rajendra Arafat;21070400611087    ;PNS/TNI/Polri;;TIDAK;0;TIDAK;0;TIDAK;TIDAK;;INDONESIA;;
Wasta Suharya;195601041993031003;L;;;;;Sumedang;1956-01-04;3204180401560001;;5733734637200012;PNS;Guru Mapel;1;Kp. Cinta Karya RT.04 RW.08 Desa Cililin Kec. Cililin;4;8;;Cililin;Kec. Cililin;40562;0226940610;085846244505;;;1;0990/I.02/Kep/C.p.B.1.1993;1993-03-01;0990/I.02/Kep/C.p.B.1.1993;1993-03-01;Pemerintah Kab/Kota;IV/a;APBD Kabupaten/Kota;Rumti;KAWIN;Rokayah;;PNS/TNI/Polri;1995-02-01;TIDAK;0;TIDAK;0;TIDAK;TIDAK;;INDONESIA;;
Wawan;;L;;;;;Tasikmalaya;1967-07-04;3217090407670004;;6739745647200022;Guru Honor Sekolah;Guru Mapel;1;Jl. Hegarmanah 2 RT.01 RW.06 No. 1 Desa Galanggang Kec. Batujajar;1;6;Rancatiis;Galanggang;Kec. Batujajar;40561;-;085659314821;;;1;;;10910210;1996-07-04;Kepala Sekolah;-;Sekolah;Koniah;KAWIN;Evva Nurlatifah;;Tidak bekerja;;TIDAK;0;TIDAK;0;TIDAK;TIDAK;357875368421000;INDONESIA;;
Wawan Budiawan;-;L;;;;;Cililin;1975-05-05;3217110505750036;-;1837753654200022;Tenaga Honor Sekolah;Tenaga Administrasi Sekolah;1;Kp. Cipetir No. 50;3;1;Karangtanjung;Karangtanjung;Kec. Cililin;40562;-;081321154815;wawancipetir@gmail.com;;1;;;896/1370 A - Kepeg / 2008;2008-07-01;Kepala Sekolah;-;Sekolah;HJ. Diyah;BELUM KAWIN;;;Tidak bekerja;;TIDAK;0;TIDAK;0;TIDAK;TIDAK;;INDONESIA;;
Winengsih;;P;;;;;Bandung;1994-12-31;3217097112950001;;;Tenaga Honor Sekolah;Tenaga Administrasi Sekolah;1;Cibungur;2;10;Cibungur;Batujajar Timur;Kec. Batujajar;40561;;085795838611;uintajjahh@yahoo.co.id;;1;;;896/287-Kepeg/2014;2014-07-01;Kepala Sekolah;;Sekolah;Rosmiati;BELUM KAWIN;;;Tidak bekerja;;TIDAK;0;TIDAK;0;TIDAK;TIDAK;;INDONESIA;;
Wiwi Kartiwi;197612052009012004;P;;;;;Ciamis;1976-12-05;3204104512760010;;7537754656300073;PNS;Guru Mapel;1;Perum Gadingjunti Asri Blok AH2 No. 37 RT.04 RW.5 Desa Sangkanhurip Kec. Katapan;4;5;;Sangkanhurip;Kec. Katapang;40971;02276664221;081809870088;wiwikartiwi@yahoo.co.id;;1;813.3/Kep.153-BKPP/2009;2009-01-01;813.3/Kep.153-BKPP/2009;2009-01-01;Pemerintah Kab/Kota;III/b;APBD Kabupaten/Kota;Juju;KAWIN;Supriatna;;Wiraswasta;2010-04-01;TIDAK;0;TIDAK;0;TIDAK;TIDAK;491980637445999;INDONESIA;;
Yadi Rusyadi;;L;;;;;Bandung;1976-06-09;321709090676018 ;;2238754655200013;Guru Honor Sekolah;Guru Mapel;1;Kp. Jalantir;2;13;;Selacau;Kec. Batujajar;40561;02295197828;085624840004;mang_iday@yahoo.com;;1;;;896.1/123.21/Kur/2004;2004-07-01;Kepala Sekolah;-;Sekolah;Euis Ruhyati (alm);KAWIN;Santi Windarti;197612302007012011;PNS/TNI/Polri;;TIDAK;0;TIDAK;0;TIDAK;TIDAK;365951037421000;INDONESIA;;
Yayan;-;L;;;;;Bandung;1975-03-12;321710912030014 ;-;6535753654200003;Tenaga Honor Sekolah;Tenaga Administrasi Sekolah;1;Kp. Jalantir RT.02 RW.14 Desa Selacau Kec. Batujajar;2;14;-;SELACAU;Kec. Batujajar;40561;-;-;waone.petir@gmail.com;;1;;;800/102.10/SMU.08KP/2003;2003-07-01;Pemerintah Pusat;-;Lainnya;Anih;KAWIN;NANA;-                 ;Lainnya;;TIDAK;0;TIDAK;0;TIDAK;TIDAK;;INDONESIA;;
Yayu Setia Hartati;198009272009012005;P;;;;;Cimahi;1980-09-17;3277026709800021;;8259758660300033;PNS;Guru Mapel;1;Jl. Margaluyu No. 285 RT.01 RW.02 Kel. Cimahi kec. Cimahi Tengah;1;0;;Cimahi;Kec. Cimahi Tengah;40525;0226631758;081395200904;setiayayu@yahoo.com;;1;813.3/Kep.281-BKPP/2009;2009-01-01;-;2005-07-15;Ketua Yayasan;III/b;APBD Provinsi;Iim Rusmiati;KAWIN;Yadi Mulyadi;198108092008011003;PNS/TNI/Polri;2009-04-01;TIDAK;0;TIDAK;0;TIDAK;TIDAK;785558099421000;INDONESIA;;
Yosa Yosiana;198208112009012006;P;;;;;Ciamis;1982-08-11;3204085108820002;;0143760662110063;PNS;Guru Mapel;1;Komplek GBA 2 K.4 No. 33;1;8;;Cipagalo;Kec. Bojongsoang;40287;-;081320505543;ocha_cmh@yahoo.co.id;;1;813.3/Kep.149-BKPP/2009;2009-01-01;813.3/Kep.149-BKPP/2009;2009-01-01;Pemerintah Kab/Kota;III/b;APBD Kabupaten/Kota;Yuyu Yuliati;KAWIN;Memet Rohimat;-                 ;Karyawan Swasta;2010-04-01;TIDAK;0;TIDAK;0;TIDAK;TIDAK;449718972444000;INDONESIA;;
Yusup;196812291992011002;L;;;;;Bandung;1968-12-29;3217102912680004;;7561746648200003;PNS;Guru Mapel;1;Kp. Cihampelas ;1;2;Kp Cihampelas;Cihampelas;Kec. Cihampelas;40562;02286861791;085722764327;mandala2tea@gmail.com;;1;7837/A2.IV.1/C/1992;1992-01-01;7837/A2.IV.1/C/1992;1992-01-01;Pemerintah Pusat;IV/a;APBN;Wariyah;KAWIN;Yunita Sari;-                 ;Tidak bekerja;1993-12-01;TIDAK;0;TIDAK;0;TIDAK;TIDAK;269141370421000;INDONESIA;;
