NAMA,NIP,JK,GOLONGAN_DARAH,GAJI,KODE_GURU,STATUS_SERTIFIKASI,TEMPAT_LAHIR,TANGGAL_LAHIR,NIK,NIY_NIGK,NUPTK,STATUS_KEPEGAWAIAN,JENIS_PTK,AGAMA,ALAMAT,RT,RW,DUSUN,DESA_KELURAHAN,KECAMATAN,KODE_POS,TELEPON,HP,EMAIL,JENIS_JABATAN,STATUS_AKTIF,SK_CPNS,TANGGAL_CPNS,SK_PENGANGKATAN,TMT_PENGANGKATAN,LEMBAGA_PENGANGKATAN,PANGKAT_GOLONGAN,SUMBER_GAJI,NAMA_IBU_KANDUNG,STATUS_PERKAWINAN,NAMA_SUAMI_ISTRI,NIP_SUAMI_ISTRI,PEKERJAAN_SUAMI_ISTRI,TMT_PNS,SUDAH_LISENSI_KEPALA_SEKOLAH,JUMLAH_SEKOLAH_BINAAN,PERNAH_DIKLAT_KEPENGAWASAN,MAMPU_HANDLE_KK,KEAHLIAN_BRAILLE,KEAHLIAN_BAHASA_ISYARAT,NPWP,KEWARGANEGARAAN,KUALIFIKASI_GURU,JENJANG_PENDIDIKAN
Aan Rahmawati,197307272006042016,P,,,,,Garut,1973-07-27,,,,PNS,Guru Mapel,Islam,Graha Pratama Permai,0,0,Kondang Jaya,Kodang jaya,Kec. Karawang Timur,,-,081221461887,aan.rahmaspd@gmail.com,,1,813/Kep.6295-Peg/2006,2006-12-12,823/Kep.1151/BKD/2012,2012-04-01,Pemerintah Pusat,III/b,APBN,Maemunah,Kawin,,,Tidak bekerja,,0,,0,,0,0,092772557408000,ID,,
Aan Rohani,195811191983032003,P,,,,,Tasikmalaya,1958-11-19,,,,PNS,Guru Mapel,Islam,Perumnas Adiarsa Jl. Cisokan 1 no 01,3,12,Adiarsa Barat,Adiarsa Barat,Kec. Karawang,41313,-,081310468892,aanrohani04@gmail.com,,1,42027/C/2/1983,1983-04-16,D-030007,1998-04-01,Pemerintah Pusat,IV/a,APBN,Diah Ruhadiah,Kawin,"Suprawadi, SH",,PNS/TNI/Polri,,0,,0,,0,0,092771872408000,ID,,
Acan Bahrudin,,L,,,,,Bekasi,1982-03-15,,,,Guru Honor Sekolah,Guru Mapel,Islam,Kp. Teluk haur,1,2,Telukhaur,Karanghaur,Kec. Pebayuran,17710,,085774205004,acanbahrudin@gmail.com,,1,,,423/158/SMA/2013,2013-07-18,Kepala Sekolah,,APBD Kabupaten/Kota,Esih,Kawin,Iis Istianah,,Lainnya,,0,,0,,0,0,,ID,,
Ahmad Sopian,,L,,,,,Karawang,1978-02-01,,,,Tenaga Honor Sekolah,Tenaga Administrasi Sekolah,Islam,Jl. Cakradireja No.24,2,5,Jatirasa Tengah,Karangpawitan,Kec. Karawang Barat,41315,,085780770870,ahmad.yanz@gmail.com,,1,,,800/154/SMAN/2011,2011-09-30,Kepala Sekolah,,APBD Kabupaten/Kota,Ny. Tati,Belum Kawin,,,Tidak bekerja,,0,,0,,0,0,733270391408000,ID,,
Aisyatu Hamdiah,,P,,,,,Bandung,1985-09-13,,,,Guru Honor Sekolah,Guru Mapel,Islam,Jatirasa Timur,4,10,Jatirasa Timur,Karangpawitan,Kec. Karawang Barat,41315,,,niaahamdiah@gmail.com,,1,,,423/158/SMA/2014,2014-07-18,Kepala Sekolah,,APBD Kabupaten/Kota,"Hj. Endah Saodah Muchtar, BA, SH.",Belum Kawin,,,Tidak bekerja,,0,,0,,0,0,,ID,,
Aldy Traya Putra,,L,,,,,Karawang,1990-11-21,,,,Guru Honor Sekolah,Guru Mapel,Islam,Bumi Taruno Permai D8 No.10,3,4,Adiarsa,Adiarsa Barat,Kec. Karawang Barat,41313,,,aldytrayaputra@yahoo.com,,1,,,421.5/220/SMA/2015,2015-07-27,Kepala Sekolah,,APBD Kabupaten/Kota,E. Iriantini Idris,Belum Kawin,,,Tidak bekerja,,0,,0,,0,0,,ID,,
Amoy Siti Maemunah,,P,,,,,Karawang,1990-09-11,,,,Guru Honor Sekolah,Guru Mapel,Islam,Cariu III,13,5,Cariu III,Cariumulya,Kec. Telagasari,41381,,085717009326,amoy.siti.m@gmail.com,,1,,,423/158/SMA/2014,2014-07-18,Kepala Sekolah,,APBD Kabupaten/Kota,Titi,Belum Kawin,,,Tidak bekerja,,0,,0,,0,0,,ID,,
Ano,196304091995121001,L,,,,,Karawang,1963-04-09,,,,PNS,Guru Mapel,Islam,Kp. Paracis,2,11,Paracis,Tanjungpura,Kec. Karawang,41316,-,082125800556,anopratam@gmail.com,,1,77240/A2/KP/1995,1995-11-29,823.4/Kep.192.B/Peg/2008,2008-04-01,Pemerintah Pusat,IV/a,APBN,Raeni,Kawin,,,Tidak bekerja,,0,,0,,0,0,092772904408000,ID,,
ASTI LARASATI,,P,,,,,BEKASI,1993-04-01,,,,Guru Honor Sekolah,Guru Mapel,Islam,BEKASI REGENCI 2 BLOK CC.1 NO. 80,2,18,,WANASARI,Kec. Cibitung,,,,astilarasati@rocketmail.com,,1,,,,2016-07-18,Kepala Sekolah,,Sekolah,SRI SUNU SUPENI,Belum Kawin,,,Tidak dapat diterapkan,,1,,0,,0,0,769283425435000,ID,,
Budiyanto,196305171991111001,L,,,,,Klaten,1963-05-17,,,,PNS,Guru Mapel,Islam,Perumnas Adiarsa Jl. Cisokan Raya no 141,13,9,Adiarsa,Adiarsa Barat,Kec. Karawang,41313,-,081316546177,budigurukimia@yahoo.com,,1,1317/I02.Kep/C.PB.1.1992,1992-01-11,823.4/Kep.673-B/Peg/2003,2003-10-01,Pemerintah Pusat,IV/a,APBN,Suratmi,Kawin,,,PNS/TNI/Polri,,0,,0,,0,0,092772938408000,ID,,
Deni Anjar Rahman Nugraha,196106261986031009,L,,,,,Tasikmalaya,1961-06-26,,,,PNS,Guru Mapel,Islam,Jl. Rangga Gede Gempol Rawa,2,4,Gempol Rawa,Tanjungpura,Kec. Karawang,41316,-,0811128161,denianjarrahman@gmail.com,,1,0727/I02.Kep/C.PB.1.1986,1986-05-12,823.4/Kep.407-BKD/2013,2013-04-01,Pemerintah Pusat,IV/b,APBN,Mimi Hermini,Kawin,Siseu Sa'Diah,,Tidak bekerja,,0,,0,,0,0,092789825408000,ID,,
Deni Soprijal,,L,,,,,Karawang,1971-09-14,,,,Guru Honor Sekolah,Guru Mapel,Islam,Karawang,0,0,Jatirasa Timur,Karangpawitan,Kec. Karawang Barat,41315,,,deni.soprijal@gmail.com,,1,,,800/159/SMA,2004-07-01,Kepala Sekolah,,APBD Kabupaten/Kota,Heni,Kawin,-,,Tidak bekerja,,0,,0,,0,0,,ID,,
Dodi Suhud Permadi,196109041987031006,L,,,,,Ciamis,1961-09-04,,,,PNS,Guru Mapel,Islam,Jalan Apel Raya Blok II No 74,81,22,Karanganyar,Karanganyar,Kec. Karawang,41211,-,081395710504,drs.dodi@gmail.com,,1,0680/I02.Kep/C.PB.1.1987,1987-05-19,III.13.10/00507/KEP/X/1998.T,1998-10-01,Pemerintah Pusat,IV/a,APBN,Siti Kalsum,Kawin,,,PNS/TNI/Polri,,0,,0,,0,0,092719030408000,ID,,
Dudi kurniadi,198308162009021003,L,,,,,Karawang,1983-08-16,,,,PNS,Guru BK,Islam,Kp.Waru,2,6,Wargasetra,Wargasetra,Kec. Tegalwaru,41362,,081514662262,fatwaraida@gmail.com,,1,813/Kep.474.BKD/2009,2009-02-01,821/Kep.607/BKD/2010,2010-04-01,Pemerintah Kab/Kota,III/b,APBD Kabupaten/Kota,Anemi,Kawin,Rina Herlina,,Tidak bekerja,,0,,0,,0,0,261690481433000,ID,,
E. Iriantini Idris,196202191987032004,P,,,,,Karawang,1962-02-19,,,,PNS,Guru Mapel,Islam,Perum Bumi Taruno Permai Blok D8 no 10,3,4,Adiarsa,Adiarsa Barat,Kec. Karawang,41313,-,08128017549,iriantiniidris@gmail.com,,1,1159/I02.Kep/C.PB.1.87,1987-07-22,823.4/Kep.135-B/Peg/2005,2005-04-01,Pemerintah Pusat,IV/a,APBN,Hj. Sukarsih,Kawin,,,PNS/TNI/Polri,,0,,0,,0,0,092773118408000,ID,,
Edi Sofyan,196709301991011002,L,,,,,Karawang,1967-09-30,,,,PNS,Guru Mapel,Islam,Karawang,1,19,Dawuan Tengah,Dawuan Tengah,Kec. Cikampek,41373,,085286416214,edisofyan3009@gmail.com,,1,8612/I02/C/1995,1995-03-15,823.4/Kep.271-B/Peg/2008,2008-04-01,Pemerintah Pusat,IV/a,APBN,Resti,Kawin,,,Tidak bekerja,,0,,0,,0,0,254592702433000,ID,,
Ema Amalia,197612182006042007,P,,,,,Karawang,1976-12-18,,,,PNS,Guru Mapel,Islam,Dusun Krajan 1 no 3,6,3,Krajan,Sukamerta,Kec. Karawang,41382,-,081573155260,emamamahzaidan@gmail.com,,1,813/Kep.6295-Peg/2006,2006-12-12,823/Kep 1151/BKD/2012,2012-04-01,Pemerintah Pusat,III/c,APBN,Elli Sulasmini,Kawin,,,PNS/TNI/Polri,,0,,0,,0,0,092771880408000,ID,,
Encam,198007032014071002,L,,,,,Karawang,1980-07-03,,,,CPNS,Guru Mapel,Islam,Batu Jaya,12,11,Pisangsambo,Pisangsambo,Kec. Tirtajaya,41357,,,encam.sm@gmail.com,,1,812/Kep.210/BKD/2015,2014-07-01,Bupati,2014-07-25,Pemerintah Kab/Kota,III/a,APBD Kabupaten/Kota,Encoh,Kawin,Ipa Latifah,-                 ,Tidak bekerja,,0,,0,,0,0,721174126408000,ID,,
Endi Juhendi,196408251994121001,L,,,,,Karawang,1964-08-25,,,,PNS,Guru Mapel,Islam,Pundong,4,3,Kp Pundong,Telagasari,Kec. Karawang,41381,-,081906700507,endijuhe@gmail.com,,1,78587/A2/C/1994,1994-11-24,823.4/Kep.192.B/Peg/2008,2008-04-01,Pemerintah Pusat,IV/a,APBN,Idjah,Kawin,,,PNS/TNI/Polri,,0,,0,,0,0,092715259408000,ID,,
Enok Budiyanti,197102082007012003,P,,,,,Tasikmalaya,1971-02-08,,,,PNS,Guru Mapel,Islam,Dsn. Sukamukti,12,7,Sukamukti,Telukjambe,Kec. Karawang,41361,-,081318782756,ebyanti@gmail.com,,1,813/Kep.6259-Peg/2006,2007-01-01,823/Kep.2975/BKD/2010,2010-10-01,Pemerintah Pusat,III/b,APBN,Emin Aminah,Kawin,,,PNS/TNI/Polri,,0,,0,,0,0,092772045408000,ID,,
H. Karyanto Utomo,196204291984031005,L,,,,,Pati,1962-04-29,,,,PNS,Guru Mapel,Islam,Jalan Suria Saba Kusuma,0,0,,Tanjungpura,Kec. Karawang,41316,-,,h.utomo@gmail.com,,1,49220/C/K/V.I/84,1984-05-23,49220/C/K/V.I/84,1984-05-23,Pemerintah Pusat,IV/b,APBN,Sundarni,Kawin,,,PNS/TNI/Polri,,0,,0,,0,0,092799014408000,ID,,
H. Yuhana,196403121987031016,L,,,,,Karawang,1964-03-12,,,,PNS,Guru Mapel,Islam,Perum Kandiwa Permai Blok.G/1,75,20,Duren,Duren,Kec. Klari,41371,,085691447350,yuhana_67@yahoo.com,,1,0446/I02.kep/C.PB.1.87,1987-03-01,823.4/Kep.1427/Peg/2002,2002-04-01,Pemerintah Kab/Kota,IV/a,APBN,Murtiah,Kawin,Dida Siti Sa'adah,196804131994122001,PNS/TNI/Polri,,1,,0,,0,0,241037688433000,ID,,
Herdi Jaya Sukmana,196208301987031006,L,,,,,Tasikmalaya,1962-08-30,,,,PNS,Guru Mapel,Islam,Lamaran,1,5,Palumbon Sari,Karawang Timur,Kec. Karawang Timur,,,081287951136,herdijsukmana@gmail.com,,1,0679/I02.Kep/C.PB.1.1987,1987-02-21,III.13.10/00507/KEP/X/1998.T,1998-10-01,Pemerintah Pusat,IV/a,APBN,Ooh Robiah,Kawin,,,Tidak bekerja,,0,,0,,0,0,241135094408000,ID,,
Hermawan,196906242005011005,L,,,,,Sumedang,1969-06-24,,,,PNS,Guru Mapel,Islam,Perum Mutiara Nirwana D1 no 1,33,11,Kondang Jaya,Kondangjaya,Kec. Karawang Timur,,-,081311019050,spdhermawan@gmail.com,,1,813/Kep.378-Peg/2005,2005-02-18,823/Kep.2968/BKD/2011,2011-10-01,Pemerintah Pusat,III/d,APBN,Sasminah,Kawin,,,PNS/TNI/Polri,,0,,0,,0,0,092772888408000,ID,,
Hj. Ati Suginati Permana,195807131987032003,P,,,,,Subang,1958-07-13,,,,PNS,Guru Mapel,Islam,Jl. Bima Blok J NO.101,1,8,Sukaluyu,Teluk Jambe Timur,Kec. Teluk Jambe Timur,41361,,08164215171,atisp-58@yahoo.com,,1,1463/102.Kep/C.PB.1.87,1987-03-01,1463/102.Kep/C.PB.1.87,1987-03-01,Pemerintah Propinsi,IV/b,APBN,Nani Manyunani,Kawin,"Ir. H. Mochamad Danny Ramdhani, MM",-                 ,Peternak,,1,,0,,0,0,550725386408000,ID,,
Hj. Setiawati,195807251987032006,P,,,,,Karawang,1958-07-25,,,,PNS,Guru Mapel,Islam,Johar Baru No 41,3,11,Karawang,Karawang Wetan,Kec. Karawang Timur,41314,-,085793258520,setiawatiikin@gmail.com,,1,0651/I02.Kep/C.PB.1.1987,1987-05-19,III.13.10/00613/KEP/X/1999.T,1999-10-01,Pemerintah Pusat,IV/a,APBN,Hj. Hodijah ( Alm),Kawin,,,Tidak bekerja,,0,,0,,0,0,241816479408000,ID,,
IKA SOLEHA,,P,,,,,SUKABUMI,1994-10-13,,,,Guru Honor Sekolah,Guru Mapel,Islam,KP.SENTUL,2,1,Dawuan,DAWUAN TIMUR,Kec. Cikampek,43173,,085781774915,bikasolehah@gmail.com,,1,,,,2016-07-18,Kepala Sekolah,,Sekolah,AISYAH,Belum Kawin,,,Tidak dapat diterapkan,,1,,0,,0,0,,ID,,
Iksan Fadoli,196202191987031003,L,,,,,Indramayu,1962-02-19,,,,PNS,Guru Mapel,Islam,Jalan Citanduy Raya No 31,0,0,,Adiarsa Barat,Kec. Karawang,41313,407316,085777315051,iksanfadoli@yahoo.co.id,,1,0677/I02.Kep/C.PB.1.1987,1987-05-19,0677/I02.Kep/C.PB.1.1987,1987-05-19,Pemerintah Pusat,IV/a,APBN,Alfiyah,Kawin,,,PNS/TNI/Polri,,0,,0,,0,0,241805712408000,ID,,
Indri Muhtar Hadi,197611192014081001,L,,,,,Karawang,1976-03-09,,,,CPNS,Guru Mapel,Islam,Perum Griya Kondang Asri Blok D.10 No.1,18,7,Kondang Jaya,Kondang Jaya,Kec. Karawang Timur,41352,,082122387648,indreamh@gmail.com,,1,812/Kep.210/BKD/2015,2014-08-01,812/Kep.210/BKD/2015,2014-08-01,Pemerintah Propinsi,II/a,APBD Kabupaten/Kota,Dian,Kawin,Dewi Pujianti,,PNS/TNI/Polri,,0,,0,,0,0,721365203408000,ID,,
Juhana Suherman,196506091991031009,L,,,,,Garut,1965-06-09,,,,PNS,Guru Mapel,Islam,Perumnas Bumi Teluk Jambe Blok T No 147,2,11,Sukaharja,Sukaharja,Kec. Karawang,41361,-,081310325980,juhana.suherman@gmail.com,,1,1270/I02.Kep/C.PB1.1991,1991-08-30,823.4/Kep.1427/Peg/2002,2002-04-01,Pemerintah Pusat,IV/a,APBN,Unih,Kawin,,,Tidak bekerja,,0,,0,,0,0,092772920408000,ID,,
Lina Nurhendianti,,P,,,,,Karawang,1971-01-23,,,,Guru Honor Sekolah,Guru Mapel,Islam,Delta Jati Kota A4/16,6,13,Adiarsa,Adiarsa Timur,Kec. Karawang Timur,,,085691377585,nurhendiantilina@gmail.com,,1,,,800/159/SMA,2013-07-15,Kepala Sekolah,,APBD Kabupaten/Kota,Nurjani Nurdin,Kawin,Karna,,Pensiunan,,0,,0,,0,0,,ID,,
Mahdi,195908191987031009,L,,,,,Karawang,1959-08-19,,,,PNS,Tenaga Administrasi Sekolah,Islam,Gempol Rawa,2,4,Gempol,Tanjung Pura,Kec. Karawang Barat,41316,,085716149027,mahdi.tu04@gmail.com,,1,0300/I02.Kep./C.PB.2.1987,1987-03-01,0300/I02.Kep./C.PB.2.1987,1987-03-01,Pemerintah Pusat,III/a,APBD Provinsi,Wawiyah,Kawin,Cacih,,Lainnya,,0,,0,,0,0,240664524408000,ID,,
Maryanih,196108111984122001,P,,,,,Karawang,1961-08-11,,,,PNS,Guru Mapel,Islam,Perum Adiarsa Indah Babakan Tengah,1,7,Adiarsa,Adiarsa Timur,Kec. Karawang,41371,-,08561419114,nanan06aziz@gmail.com,,1,0316/I02.Kep/C.PB.1.85,1985-02-27,823.4/Kep.673-B/Peg/2003,2003-10-01,Pemerintah Pusat,IV/a,APBN,Ai Syatiah,Kawin,,,Tidak bekerja,,0,,0,,0,0,092770635408000,ID,,
Muhammad Busron,,L,,,,,Karawang,1985-01-01,,,,Guru Honor Sekolah,Guru Mapel,Islam,Pedes II,3,5,Pedes II,Payungsari,Kec. Pedes,,,,dedebusron88@gmail.com,,1,,,2011,2011-07-01,Pemerintah Pusat,,APBN,-,Belum Kawin,,,Tidak bekerja,,0,,0,,0,0,,ID,,
Nana Indraperayana,195709301986031003,L,,,,,Karawang,1957-09-30,,,,PNS,Guru Mapel,Islam,Panderesan,2,10,Bantar Jaya,Pebayuran,Kec. Pebayuran,,,085863895151,nanaindra@gmail.com,,1,0864/102.Kep/C.PB.1.1986,1986-03-01,III.13.10/00507/KEP/X/1998.T,1998-10-01,Pemerintah Pusat,IV/a,APBN,Ijah,Kawin,,,Tidak bekerja,,0,,0,,0,0,256723727433000,ID,,
Nina Kodariah,196905091997022004,P,,,,,Karawang,1969-05-09,,,,PNS,Guru Mapel,Islam,Rawamerta Karawang,0,0,,Sukamerta,Kec. Karawang,,-,,ninakodariah@yahoo.co.id,,1,12232/A2/KP/1997,1997-01-28,12232/A2/KP/1997,1997-01-28,Pemerintah Pusat,III/d,APBN,-,Kawin,,,Tidak bekerja,,0,,0,,0,0,092772862408000,ID,,
Nunung Suhaenah,196712042006042001,P,,,,,Bandung,1967-12-04,,,,PNS,Guru Mapel,Islam,Kepuh,1,35,Kepuh,Nagasari,Kec. Karawang Barat,41312,-,081286704804,nunungs666@gmail.com,,1,813/Kep.4034-Peg/2006,2006-07-18,823/Kep.1151/BKD/2012,2012-04-01,Pemerintah Pusat,III/c,APBN,Unisah,Kawin,,,PNS/TNI/Polri,,0,,0,,0,0,092789288408000,ID,,
Raden Putri Purnamasari,,P,,,,,Karawang,1991-03-31,,,,Guru Honor Sekolah,Guru BK,Islam,Jl. Citanduy No. 328,2,16,Adiarsa Barat,Adiarsa Barat,Kec. Karawang Barat,41313,,082120494010,putripurnamasari48@gmail.com,,1,,,423/158/SMA/2014,2014-07-18,Kepala Sekolah,,APBD Kabupaten/Kota,Titin Kustinah,Belum Kawin,,,Tidak bekerja,,0,,0,,0,0,,ID,,
Raissa Mochamad,,P,,,,,Karawang,1992-12-25,,,,Guru Honor Sekolah,Guru Kelas,Islam,Perum Adiarsa Indah No.8,2,5,Adiarsa,Adiarsa Timur,Kec. Karawang Timur,41313,,,raissamoch@gmail.com,,1,,,421.5/220/SMA/2015,2015-07-27,Kepala Sekolah,,APBD Kabupaten/Kota,Maryanih. S.Pd,Belum Kawin,,,Tidak bekerja,,0,,0,,0,0,717250989408000,ID,,
Rimawati,197102172000032003,P,,,,,Karawang,1971-02-17,,,,PNS,Tenaga Administrasi Sekolah,Islam,Permata Teluk Jambe MB 12A,1,18,Sukaluyu,Sukaluyu,Kec. Teluk Jambe Timur,,,,armalarima@gmail.com,,1,578/I02.3/Kep/KP/2000,2000-03-01,578/I02.3/Kep/KP/2000,2000-03-01,Pemerintah Pusat,III/a,APBN,Sukarti,Belum Kawin,,,Tidak bekerja,,0,,0,,0,0,092724053408000,ID,,
Rindi Antika,,P,,,,,Karawang,1992-01-16,,,,Guru Honor Sekolah,Guru Kelas,Islam,Jl. Gurame 2 B3/12,19,6,Teluk Jambe,Teluk Jambe,Kec. Teluk Jambe Timur,,,085794199192,antikaarindi888@gmail.com,,1,,,421.5/220/SMA/2015,2015-07-27,Kepala Sekolah,,APBD Kabupaten/Kota,Nunung Nurhayati,Belum Kawin,,,Tidak bekerja,,0,,0,,0,0,,ID,,
Rizki Meikelda,,L,,,,,Karawang,1987-05-12,,,,Guru Honor Sekolah,Guru Mapel,Islam,Pacing Selatan,6,2,Pacing Selatan,Dewisari,Kec. Rengasdengklok,41352,,085778998599,rizkymeikelda@ymail.com,,1,,,423/158/SMA/2014,2014-07-18,Kepala Sekolah,,APBD Kabupaten/Kota,Tursina,Belum Kawin,,,Tidak bekerja,,0,,0,,0,0,,ID,,
Robertus Joko Santosa,196605161990031011,L,,,,,Karang Anyar,1966-05-16,,,,PNS,Guru Mapel,Katholik,Perum Pemda Blok D1 no 3,2,8,Sukaharja,Sukaharja,Kec. Teluk Jambe Timur,41361,-,085813332508,r.jokosantosa@gmail.com,,1,51277/A2.IV.1/C/1990,1990-06-20,823.4/Kep.1055-B/Peg/2004,2004-10-01,Pemerintah Pusat,IV/a,APBN,Sumarsih,Kawin,,,Tidak bekerja,,0,,0,,0,0,091873892408000,ID,,
Romy Yulianti,,P,,,,,Karawang,1988-08-07,,,,Guru Honor Sekolah,Guru Mapel,Islam,Tanjung Pura,3,11,Bubulak,Tanjung Pura,Kec. Karawang Barat,,,085710444054,romiyulianti@gmail.com,,1,,,421.5/220/SMA/2015,2015-07-27,Pemerintah Kab/Kota,,APBD Kabupaten/Kota,Tinah,Kawin,,,Tidak bekerja,,0,,0,,0,0,,ID,,
Rusnawati,196208031987032006,P,,,,,Pangkal Pinang,1962-08-03,,,,PNS,Guru Mapel,Islam,Jalan Cisadane Raya No 348 Perumnas Adiarsa,2,16,Adiarsa,Adiarsa Barat,Kec. Karawang Barat,41313,416119,081314292677,rusnawatiml@gmail.com,,1,0701/I02.Kep/C.PB.1.87,1987-05-19,823.3/Kep.3310/Peg/2001,2001-10-01,Pemerintah Pusat,IV/a,APBN,Isnaniah,Kawin,,,Tidak bekerja,,0,,0,,0,0,092790906408000,ID,,
Samsu Herawan,,P,,,,,Karawang,1980-09-25,,,,Honor Daerah TK.II Kab/Kota,Guru Mapel,Islam,Karawang,2,30,Babakan Cianjur,Nagasari,Kec. Karawang,41312,,,keepgod@gmail.com,,1,,,423/236/Kepsek/2006,2006-07-01,Kepala Sekolah,,APBN,TATI HERAWATI,Kawin,Arie Sri Rahayu,,Tidak bekerja,,0,,0,,0,0,,ID,,
Sarce Sarah,196806301997032001,P,,,,,Karawang,1968-06-30,,,,PNS,Guru Mapel,Kristen,Ds. Sentul,1,2,Sentul,Cikampek Selatan,Kec. Cikampek,41373,,082124425186,sarahsarce@yahoo.co.id,,1,1722/I16.3/KP/1998,1998-04-21,823.4/Kep.230-B/BKD/2010,2010-04-01,Pemerintah Pusat,IV/a,APBN,Sri,Kawin,,,Tidak bekerja,,0,,0,,0,0,245030283433000,ID,,
Taupik,,L,,,,,Kuningan,1992-10-13,,,,Guru Honor Sekolah,Guru Mapel,Islam,Kaum Jaya,10,4,Kaum Jaya,Puseur Jaya,Kec. Teluk Jambe Timur,41361,,085795289600,realipataupik@yahoo.com,,1,,,421.5/010/SMA/2016,2016-01-04,Kepala Sekolah,,APBD Kabupaten/Kota,Ani Purwaningsih,Belum Kawin,,,Tidak bekerja,,0,,0,,0,0,,ID,,
Tetti Marina Dalimunthe,197210162006042009,P,,,,,Karawang,1972-10-16,,,,PNS,Guru Mapel,Islam,Jl. Papandayan no 30B Karang Indah,2,13,Karawangpawitan,Karangpawitan,Kec. Karawang Barat,41315,-,085695002876,utemd72@gmail.com,,1,813/Kep.6295-Peg/2006,2006-12-12,823/Kep.1151/BKD/2012,2012-04-01,Pemerintah Pusat,III/c,APBN,Enen R.K,Kawin,,,Karyawan Swasta,,0,,0,,0,0,092727189408000,ID,,
Wahyu Murbodjati,197010151995121001,L,,,,,Banyuwangi,1970-10-15,,,,PNS,Guru Mapel,Islam,Perum. Bumi Karawang Permai Blok C6 No 10,26,6,Warung Bambu,Warung Bambu,Kec. Karawang Timur,41371,407425,08121017270,wahyu.djati@gmail.com,,1,78373/A2/KP/1995,1995-11-30,823.4/Kep.738-B/BKD/2009,2009-10-01,Pemerintah Pusat,IV/a,APBN,Misiyem,Kawin,,,PNS/TNI/Polri,,0,,0,,0,0,092791474408000,ID,,
Yati Nurhayati,196702191990022001,P,,,,,Tasikmalaya,1967-02-19,,,,PNS,Guru Mapel,Islam,Jatirasa Tengah,1,5,Jatirasa tengah,Karangpawitan,Kec. Karawang Barat,41315,-,081399126753,yatinurhayati558@yahoo.com,,1,0378/I02.Kep/C.PB.1.1990,1990-04-14,823.4/Kep.783-B/Peg/2006,2006-10-01,Pemerintah Pusat,IV/a,APBN,Hj. Ooh Nasiroh,Kawin,,,Tidak bekerja,,0,,0,,0,0,092771864408000,ID,,
Yatim Marjuki,,L,,,,,KARAWANG,1973-02-09,,,,GTY/PTY,Guru Mapel,Islam,Jatirasa Timur Rt 02/10 Karangpawitan,2,1,,Karangpawitan,Kec. Karawang Barat,41315,,0818133854,s.pd_yatim@yahoo.com,,1,12/YPGJ/KP/IV/1997,1997-07-01,09/YPSGJ/KP/VII/1997,1997-07-01,Ketua Yayasan,,Sekolah,Yayah Rokayah,Kawin,Samsiti,,Tidak bekerja,,0,,0,,0,0,357239599408000,ID,,
